Added Pin To Net: NetName=NetP3_2 Pin=P3-2
Added Pin To Net: NetName=NetP3_2 Pin=P3-4
Added Pin To Net: NetName=NetP3_2 Pin=P3-6
Added Pin To Net: NetName=NetP3_2 Pin=P3-8
Added Net: Name=NetP3_2
Added Pin To Net: NetName=NetP3_10 Pin=P3-10
Added Pin To Net: NetName=NetP3_10 Pin=P3-12
Added Pin To Net: NetName=NetP3_10 Pin=P3-14
Added Pin To Net: NetName=NetP3_10 Pin=P3-16
Added Net: Name=NetP3_10
Added Pin To Net: NetName=NetP4_2 Pin=P4-2
Added Pin To Net: NetName=NetP4_2 Pin=P4-4
Added Pin To Net: NetName=NetP4_2 Pin=P4-6
Added Pin To Net: NetName=NetP4_2 Pin=P4-8
Added Pin To Net: NetName=NetP4_2 Pin=P4-10
Added Pin To Net: NetName=NetP4_2 Pin=P4-12
Added Pin To Net: NetName=NetP4_2 Pin=P4-14
Added Pin To Net: NetName=NetP4_2 Pin=P4-16
Added Net: Name=NetP4_2
