G04 Layer_Physical_Order=1*
G04 Layer_Color=255*
%FSLAX25Y25*%
%MOIN*%
G70*
G01*
G75*
%ADD10C,0.02000*%
%ADD11C,0.05906*%
%ADD12R,0.05906X0.05906*%
D10*
X20000Y20000D02*
X60000D01*
X65000Y25000D02*
X70000Y20000D01*
X65000Y35000D02*
X70000Y30000D01*
X50000Y45000D02*
X65000D01*
X70000Y40000D01*
X52500Y50000D02*
X60000D01*
X55000Y55000D02*
X65000D01*
X70000Y50000D01*
X50000Y60000D02*
X55000Y55000D01*
X50000Y60000D02*
Y130000D01*
X20000Y160000D02*
X50000Y130000D01*
X45000Y57500D02*
X52500Y50000D01*
X45000Y57500D02*
Y115000D01*
X20000Y140000D02*
X45000Y115000D01*
X40000Y55000D02*
X50000Y45000D01*
X40000Y55000D02*
Y100000D01*
X20000Y120000D02*
X40000Y100000D01*
X20000Y80000D02*
X30000Y70000D01*
X20000Y100000D02*
X35000Y85000D01*
X30000Y50000D02*
Y70000D01*
Y50000D02*
X45000Y35000D01*
X65000D01*
X35000Y52500D02*
Y85000D01*
Y52500D02*
X47500Y40000D01*
X60000D01*
X20000D02*
X35000Y25000D01*
X65000D01*
X20000Y60000D02*
X25000Y55000D01*
Y47500D02*
Y55000D01*
Y47500D02*
X42500Y30000D01*
X60000D01*
D11*
X20000Y170000D02*
D03*
Y160000D02*
D03*
Y150000D02*
D03*
Y140000D02*
D03*
Y130000D02*
D03*
Y120000D02*
D03*
Y110000D02*
D03*
Y100000D02*
D03*
Y90000D02*
D03*
Y80000D02*
D03*
Y70000D02*
D03*
Y60000D02*
D03*
Y50000D02*
D03*
Y40000D02*
D03*
Y30000D02*
D03*
Y330000D02*
D03*
Y320000D02*
D03*
Y310000D02*
D03*
Y300000D02*
D03*
Y290000D02*
D03*
Y280000D02*
D03*
Y270000D02*
D03*
Y260000D02*
D03*
Y250000D02*
D03*
Y240000D02*
D03*
Y230000D02*
D03*
Y220000D02*
D03*
Y210000D02*
D03*
Y200000D02*
D03*
Y190000D02*
D03*
X60000Y20000D02*
D03*
X70000Y30000D02*
D03*
X60000D02*
D03*
X70000Y40000D02*
D03*
X60000D02*
D03*
X70000Y50000D02*
D03*
X60000D02*
D03*
X70000Y60000D02*
D03*
X60000D02*
D03*
X70000Y70000D02*
D03*
X60000D02*
D03*
X70000Y80000D02*
D03*
X60000D02*
D03*
X70000Y90000D02*
D03*
X60000D02*
D03*
D12*
X20000Y20000D02*
D03*
Y180000D02*
D03*
X70000Y20000D02*
D03*
M02*
