G04 Layer_Physical_Order=1*
G04 Layer_Color=255*
%FSLAX25Y25*%
%MOIN*%
G70*
G01*
G75*
%ADD10C,0.00800*%
%ADD11R,0.06299X0.07087*%
G04:AMPARAMS|DCode=12|XSize=59.06mil|YSize=98.43mil|CornerRadius=14.76mil|HoleSize=0mil|Usage=FLASHONLY|Rotation=270.000|XOffset=0mil|YOffset=0mil|HoleType=Round|Shape=RoundedRectangle|*
%AMROUNDEDRECTD12*
21,1,0.05906,0.06890,0,0,270.0*
21,1,0.02953,0.09843,0,0,270.0*
1,1,0.02953,-0.03445,-0.01476*
1,1,0.02953,-0.03445,0.01476*
1,1,0.02953,0.03445,0.01476*
1,1,0.02953,0.03445,-0.01476*
%
%ADD12ROUNDEDRECTD12*%
%ADD13C,0.01000*%
%ADD14C,0.02000*%
%ADD15C,0.05906*%
%ADD16R,0.05906X0.05906*%
%ADD17C,0.15000*%
%ADD18R,0.05906X0.05906*%
%ADD19C,0.05000*%
D10*
X104353Y220000D02*
G03*
X97600Y216369I-4353J0D01*
G01*
X102400D02*
G03*
X104353Y220000I-2400J3631D01*
G01*
X101697Y210803D02*
G03*
X102400Y212500I-1697J1697D01*
G01*
X101697Y210803D02*
G03*
X102400Y212500I-1697J1697D01*
G01*
X94353Y220000D02*
G03*
X94353Y220000I-4353J0D01*
G01*
X88303Y204197D02*
G03*
X87600Y202500I1697J-1697D01*
G01*
X84353Y220000D02*
G03*
X84353Y220000I-4353J0D01*
G01*
X88303Y204197D02*
G03*
X87600Y202500I1697J-1697D01*
G01*
X93900Y187500D02*
G03*
X92400Y190574I-3900J0D01*
G01*
X87600D02*
G03*
X93900Y187500I2400J-3074D01*
G01*
X84353Y180000D02*
G03*
X84353Y180000I-4353J0D01*
G01*
X75735Y170871D02*
G03*
X84353Y170000I4265J-871D01*
G01*
D02*
G03*
X79129Y174265I-4353J0D01*
G01*
X75735Y160871D02*
G03*
X84353Y160000I4265J-871D01*
G01*
D02*
G03*
X79129Y164265I-4353J0D01*
G01*
X75735Y150871D02*
G03*
X84353Y150000I4265J-871D01*
G01*
D02*
G03*
X79129Y154265I-4353J0D01*
G01*
X75735Y140871D02*
G03*
X84353Y140000I4265J-871D01*
G01*
D02*
G03*
X79129Y144265I-4353J0D01*
G01*
X76369Y127600D02*
G03*
X84353Y130000I3631J2400D01*
G01*
D02*
G03*
X76369Y132400I-4353J0D01*
G01*
Y117600D02*
G03*
X84353Y120000I3631J2400D01*
G01*
D02*
G03*
X76369Y122400I-4353J0D01*
G01*
X74353Y220000D02*
G03*
X74353Y220000I-4353J0D01*
G01*
X62400Y209000D02*
G03*
X61697Y210697I-2400J0D01*
G01*
X62400Y209000D02*
G03*
X61697Y210697I-2400J0D01*
G01*
X64353Y220000D02*
G03*
X64353Y220000I-4353J0D01*
G01*
X53209Y194815D02*
G03*
X53912Y196512I-1697J1697D01*
G01*
X53209Y194815D02*
G03*
X53912Y196512I-1697J1697D01*
G01*
X51000Y193600D02*
G03*
X52697Y194303I0J2400D01*
G01*
X51000Y193600D02*
G03*
X52697Y194303I0J2400D01*
G01*
X57600Y190000D02*
G03*
X58303Y188303I2400J0D01*
G01*
X57600Y190000D02*
G03*
X58303Y188303I2400J0D01*
G01*
X71371Y107023D02*
G03*
X71400Y107500I-3871J477D01*
G01*
X67288Y103606D02*
G03*
X67977Y103629I212J3894D01*
G01*
X63750Y108571D02*
G03*
X56250Y108571I-3750J-1071D01*
G01*
X71400Y107500D02*
G03*
X63750Y108571I-3900J0D01*
G01*
X59788Y103606D02*
G03*
X60477Y103629I212J3894D01*
G01*
X52288Y103606D02*
G03*
X52977Y103629I212J3894D01*
G01*
X114353Y90000D02*
G03*
X114353Y90000I-4353J0D01*
G01*
Y80000D02*
G03*
X114353Y80000I-4353J0D01*
G01*
Y70000D02*
G03*
X114353Y70000I-4353J0D01*
G01*
Y60000D02*
G03*
X114353Y60000I-4353J0D01*
G01*
Y50000D02*
G03*
X114353Y50000I-4353J0D01*
G01*
X104353Y80000D02*
G03*
X96369Y82400I-4353J0D01*
G01*
Y77600D02*
G03*
X104353Y80000I3631J2400D01*
G01*
Y70000D02*
G03*
X96369Y72400I-4353J0D01*
G01*
X104353Y60000D02*
G03*
X96369Y62400I-4353J0D01*
G01*
Y67600D02*
G03*
X104353Y70000I3631J2400D01*
G01*
X96369Y57600D02*
G03*
X104353Y60000I3631J2400D01*
G01*
Y50000D02*
G03*
X96369Y52400I-4353J0D01*
G01*
X114353Y40000D02*
G03*
X114353Y40000I-4353J0D01*
G01*
Y20000D02*
G03*
X114353Y20000I-4353J0D01*
G01*
Y30000D02*
G03*
X114353Y30000I-4353J0D01*
G01*
X96369Y47600D02*
G03*
X104353Y50000I3631J2400D01*
G01*
Y40000D02*
G03*
X99129Y44265I-4353J0D01*
G01*
X95735Y40871D02*
G03*
X104353Y40000I4265J-871D01*
G01*
X97697Y45697D02*
G03*
X96000Y46400I-1697J-1697D01*
G01*
X97697Y45697D02*
G03*
X96000Y46400I-1697J-1697D01*
G01*
X93303Y48303D02*
G03*
X95000Y47600I1697J1697D01*
G01*
X93303Y48303D02*
G03*
X95000Y47600I1697J1697D01*
G01*
X104353Y30000D02*
G03*
X99129Y34265I-4353J0D01*
G01*
X95735Y30871D02*
G03*
X104353Y30000I4265J-871D01*
G01*
Y20000D02*
G03*
X104353Y20000I-4353J0D01*
G01*
X83303Y88303D02*
G03*
X85000Y87600I1697J1697D01*
G01*
X83303Y88303D02*
G03*
X85000Y87600I1697J1697D01*
G01*
X85803Y78303D02*
G03*
X87500Y77600I1697J1697D01*
G01*
X85803Y78303D02*
G03*
X87500Y77600I1697J1697D01*
G01*
X88303Y68303D02*
G03*
X90000Y67600I1697J1697D01*
G01*
X88303Y68303D02*
G03*
X90000Y67600I1697J1697D01*
G01*
X90803Y58303D02*
G03*
X92500Y57600I1697J1697D01*
G01*
X90803Y58303D02*
G03*
X92500Y57600I1697J1697D01*
G01*
X88600Y39000D02*
G03*
X89303Y37303I2400J0D01*
G01*
X88600Y39000D02*
G03*
X89303Y37303I2400J0D01*
G01*
X74353Y50000D02*
G03*
X66369Y52400I-4353J0D01*
G01*
Y47600D02*
G03*
X74353Y50000I3631J2400D01*
G01*
Y40157D02*
G03*
X66269Y42400I-4353J0D01*
G01*
X57907Y52400D02*
G03*
X58900Y55000I-2907J2600D01*
G01*
D02*
G03*
X54523Y58871I-3900J0D01*
G01*
X51129Y55477D02*
G03*
X52093Y52400I3871J-477D01*
G01*
X57500Y42400D02*
G03*
X55803Y41697I0J-2400D01*
G01*
X57500Y42400D02*
G03*
X55803Y41697I0J-2400D01*
G01*
X66478Y37600D02*
G03*
X74353Y40157I3522J2558D01*
G01*
Y30315D02*
G03*
X74353Y30315I-4353J0D01*
G01*
X42888Y211438D02*
G03*
X44388Y214512I-2400J3074D01*
G01*
D02*
G03*
X38088Y211438I-3900J0D01*
G01*
X40697Y231697D02*
G03*
X39000Y232400I-1697J-1697D01*
G01*
X40697Y231697D02*
G03*
X39000Y232400I-1697J-1697D01*
G01*
X28900Y220000D02*
G03*
X21926Y222400I-3900J0D01*
G01*
Y217600D02*
G03*
X28900Y220000I3074J2400D01*
G01*
X28303Y203303D02*
G03*
X30000Y202600I1697J1697D01*
G01*
X28900Y200000D02*
G03*
X21926Y202400I-3900J0D01*
G01*
X28303Y203303D02*
G03*
X30000Y202600I1697J1697D01*
G01*
X28871Y199523D02*
G03*
X28900Y200000I-3871J477D01*
G01*
X26697Y211697D02*
G03*
X25000Y212400I-1697J-1697D01*
G01*
X26697Y211697D02*
G03*
X25000Y212400I-1697J-1697D01*
G01*
X21926Y197600D02*
G03*
X25477Y196129I3074J2400D01*
G01*
X51697Y191697D02*
G03*
X50000Y192400I-1697J-1697D01*
G01*
X51697Y191697D02*
G03*
X50000Y192400I-1697J-1697D01*
G01*
X51697Y181697D02*
G03*
X50000Y182400I-1697J-1697D01*
G01*
X51697Y181697D02*
G03*
X50000Y182400I-1697J-1697D01*
G01*
X51697Y171697D02*
G03*
X50000Y172400I-1697J-1697D01*
G01*
X51697Y171697D02*
G03*
X50000Y172400I-1697J-1697D01*
G01*
X27303Y194303D02*
G03*
X29000Y193600I1697J1697D01*
G01*
X27303Y194303D02*
G03*
X29000Y193600I1697J1697D01*
G01*
X28900Y150000D02*
G03*
X21926Y152400I-3900J0D01*
G01*
Y157600D02*
G03*
X28900Y160000I3074J2400D01*
G01*
Y140000D02*
G03*
X21926Y142400I-3900J0D01*
G01*
Y147600D02*
G03*
X28900Y150000I3074J2400D01*
G01*
X21926Y137600D02*
G03*
X28900Y140000I3074J2400D01*
G01*
Y160000D02*
G03*
X21926Y162400I-3900J0D01*
G01*
X16169Y232400D02*
G03*
X13445Y234353I-2724J-924D01*
G01*
Y225647D02*
G03*
X16169Y227600I0J2876D01*
G01*
X13445Y215647D02*
G03*
X16169Y217600I0J2876D01*
G01*
Y222400D02*
G03*
X13445Y224353I-2724J-924D01*
G01*
Y205647D02*
G03*
X16169Y207600I0J2876D01*
G01*
Y212400D02*
G03*
X13445Y214353I-2724J-924D01*
G01*
X16169Y202400D02*
G03*
X13445Y204353I-2724J-924D01*
G01*
X16169Y192400D02*
G03*
X13445Y194353I-2724J-924D01*
G01*
Y195647D02*
G03*
X16169Y197600I0J2876D01*
G01*
Y182400D02*
G03*
X13445Y184353I-2724J-924D01*
G01*
Y185647D02*
G03*
X16169Y187600I0J2876D01*
G01*
X6555Y234353D02*
G03*
X3679Y231476I0J-2876D01*
G01*
X6555Y224353D02*
G03*
X3679Y221476I0J-2876D01*
G01*
Y228524D02*
G03*
X6555Y225647I2876J0D01*
G01*
X3679Y218524D02*
G03*
X6555Y215647I2876J0D01*
G01*
Y214353D02*
G03*
X3679Y211476I0J-2876D01*
G01*
Y208524D02*
G03*
X6555Y205647I2876J0D01*
G01*
X3679Y198524D02*
G03*
X6555Y195647I2876J0D01*
G01*
Y204353D02*
G03*
X3679Y201476I0J-2876D01*
G01*
Y188524D02*
G03*
X6555Y185647I2876J0D01*
G01*
Y194353D02*
G03*
X3679Y191476I0J-2876D01*
G01*
X6555Y184353D02*
G03*
X3679Y181476I0J-2876D01*
G01*
X13445Y175647D02*
G03*
X16169Y177600I0J2876D01*
G01*
X13445Y165647D02*
G03*
X16169Y167600I0J2876D01*
G01*
Y172400D02*
G03*
X13445Y174353I-2724J-924D01*
G01*
X16169Y162400D02*
G03*
X13445Y164353I-2724J-924D01*
G01*
X16169Y152400D02*
G03*
X13445Y154353I-2724J-924D01*
G01*
Y155647D02*
G03*
X16169Y157600I0J2876D01*
G01*
X13445Y145647D02*
G03*
X16169Y147600I0J2876D01*
G01*
Y142400D02*
G03*
X13445Y144353I-2724J-924D01*
G01*
X16169Y132400D02*
G03*
X13445Y134353I-2724J-924D01*
G01*
Y135647D02*
G03*
X16169Y137600I0J2876D01*
G01*
X13445Y125647D02*
G03*
X16169Y127600I0J2876D01*
G01*
X6555Y174353D02*
G03*
X3679Y171476I0J-2876D01*
G01*
Y178524D02*
G03*
X6555Y175647I2876J0D01*
G01*
X3679Y168524D02*
G03*
X6555Y165647I2876J0D01*
G01*
X3679Y158524D02*
G03*
X6555Y155647I2876J0D01*
G01*
Y164353D02*
G03*
X3679Y161476I0J-2876D01*
G01*
X6555Y154353D02*
G03*
X3679Y151476I0J-2876D01*
G01*
Y148524D02*
G03*
X6555Y145647I2876J0D01*
G01*
Y144353D02*
G03*
X3679Y141476I0J-2876D01*
G01*
Y138524D02*
G03*
X6555Y135647I2876J0D01*
G01*
X3679Y128524D02*
G03*
X6555Y125647I2876J0D01*
G01*
Y134353D02*
G03*
X3679Y131476I0J-2876D01*
G01*
X56250Y108571D02*
G03*
X48750Y108571I-3750J-1071D01*
G01*
D02*
G03*
X41250Y108571I-3750J-1071D01*
G01*
X44788Y103606D02*
G03*
X45477Y103629I212J3894D01*
G01*
X39275Y122400D02*
G03*
X37578Y121697I0J-2400D01*
G01*
X39275Y122400D02*
G03*
X37578Y121697I0J-2400D01*
G01*
X39197Y101697D02*
G03*
X37500Y102400I-1697J-1697D01*
G01*
X39197Y101697D02*
G03*
X37500Y102400I-1697J-1697D01*
G01*
X41250Y108571D02*
G03*
X37977Y103629I-3750J-1071D01*
G01*
X29275Y107600D02*
G03*
X30972Y108303I0J2400D01*
G01*
X29275Y107600D02*
G03*
X30972Y108303I0J2400D01*
G01*
X28900Y90000D02*
G03*
X21926Y92400I-3900J0D01*
G01*
Y87600D02*
G03*
X28900Y90000I3074J2400D01*
G01*
X51697Y61697D02*
G03*
X50000Y62400I-1697J-1697D01*
G01*
X51697Y61697D02*
G03*
X50000Y62400I-1697J-1697D01*
G01*
X47500Y27600D02*
G03*
X49197Y28303I0J2400D01*
G01*
X47500Y27600D02*
G03*
X49197Y28303I0J2400D01*
G01*
X28900Y70000D02*
G03*
X21926Y72400I-3900J0D01*
G01*
Y67600D02*
G03*
X28900Y70000I3074J2400D01*
G01*
Y40000D02*
G03*
X21926Y42400I-3900J0D01*
G01*
Y17600D02*
G03*
X28900Y20000I3074J2400D01*
G01*
D02*
G03*
X21926Y22400I-3900J0D01*
G01*
Y37600D02*
G03*
X28900Y40000I3074J2400D01*
G01*
X16321Y121476D02*
G03*
X13445Y124353I-2876J0D01*
G01*
Y115647D02*
G03*
X16321Y118524I0J2876D01*
G01*
X16169Y112400D02*
G03*
X13445Y114353I-2724J-924D01*
G01*
Y105647D02*
G03*
X16169Y107600I0J2876D01*
G01*
X13445Y95647D02*
G03*
X16169Y97600I0J2876D01*
G01*
Y102400D02*
G03*
X13445Y104353I-2724J-924D01*
G01*
Y85647D02*
G03*
X16169Y87600I0J2876D01*
G01*
Y92400D02*
G03*
X13445Y94353I-2724J-924D01*
G01*
Y75647D02*
G03*
X16169Y77600I0J2876D01*
G01*
Y82400D02*
G03*
X13445Y84353I-2724J-924D01*
G01*
X16169Y72400D02*
G03*
X13445Y74353I-2724J-924D01*
G01*
Y65647D02*
G03*
X16169Y67600I0J2876D01*
G01*
X3679Y118524D02*
G03*
X6555Y115647I2876J0D01*
G01*
X3679Y108524D02*
G03*
X6555Y105647I2876J0D01*
G01*
Y124353D02*
G03*
X3679Y121476I0J-2876D01*
G01*
X6555Y114353D02*
G03*
X3679Y111476I0J-2876D01*
G01*
X6555Y104353D02*
G03*
X3679Y101476I0J-2876D01*
G01*
Y98524D02*
G03*
X6555Y95647I2876J0D01*
G01*
X3679Y88524D02*
G03*
X6555Y85647I2876J0D01*
G01*
Y94353D02*
G03*
X3679Y91476I0J-2876D01*
G01*
X6555Y84353D02*
G03*
X3679Y81476I0J-2876D01*
G01*
Y78524D02*
G03*
X6555Y75647I2876J0D01*
G01*
Y74353D02*
G03*
X3679Y71476I0J-2876D01*
G01*
Y68524D02*
G03*
X6555Y65647I2876J0D01*
G01*
X13445Y55647D02*
G03*
X16169Y57600I0J2876D01*
G01*
Y62400D02*
G03*
X13445Y64353I-2724J-924D01*
G01*
Y45647D02*
G03*
X16169Y47600I0J2876D01*
G01*
Y52400D02*
G03*
X13445Y54353I-2724J-924D01*
G01*
Y35647D02*
G03*
X16169Y37600I0J2876D01*
G01*
Y42400D02*
G03*
X13445Y44353I-2724J-924D01*
G01*
X16169Y32400D02*
G03*
X13445Y34353I-2724J-924D01*
G01*
Y25647D02*
G03*
X16169Y27600I0J2876D01*
G01*
X13445Y15647D02*
G03*
X16169Y17600I0J2876D01*
G01*
Y22400D02*
G03*
X13445Y24353I-2724J-924D01*
G01*
X16321Y11476D02*
G03*
X13445Y14353I-2876J0D01*
G01*
Y5647D02*
G03*
X16321Y8524I0J2876D01*
G01*
X3679Y58524D02*
G03*
X6555Y55647I2876J0D01*
G01*
Y64353D02*
G03*
X3679Y61476I0J-2876D01*
G01*
Y48524D02*
G03*
X6555Y45647I2876J0D01*
G01*
Y54353D02*
G03*
X3679Y51476I0J-2876D01*
G01*
X6555Y44353D02*
G03*
X3679Y41476I0J-2876D01*
G01*
Y38524D02*
G03*
X6555Y35647I2876J0D01*
G01*
X3679Y28524D02*
G03*
X6555Y25647I2876J0D01*
G01*
X3679Y18524D02*
G03*
X6555Y15647I2876J0D01*
G01*
Y24353D02*
G03*
X3679Y21476I0J-2876D01*
G01*
X6555Y34353D02*
G03*
X3679Y31476I0J-2876D01*
G01*
X6555Y14353D02*
G03*
X3679Y11476I0J-2876D01*
G01*
Y8524D02*
G03*
X6555Y5647I2876J0D01*
G01*
X112000Y224353D02*
Y247500D01*
X110000Y224353D02*
Y247500D01*
X114353Y224000D02*
X115000D01*
X114000Y224353D02*
Y247500D01*
X105647Y224353D02*
X114353D01*
X106000D02*
Y247500D01*
X108000Y224353D02*
Y247500D01*
X114353Y220000D02*
X115000D01*
X114353Y222000D02*
X115000D01*
X114353Y216000D02*
X115000D01*
X114353Y218000D02*
X115000D01*
X103866Y222000D02*
X105647D01*
X101716Y224000D02*
X105647D01*
X100000Y224353D02*
Y247500D01*
X104000Y221716D02*
Y247500D01*
X102000Y223866D02*
Y247500D01*
X98000Y223866D02*
Y247500D01*
X96000Y221716D02*
Y247500D01*
X94000Y221716D02*
Y247500D01*
X103866Y218000D02*
X105647D01*
X104353Y220000D02*
X105647D01*
X102400Y216000D02*
X105647D01*
X93866Y222000D02*
X96134D01*
X94353Y220000D02*
X95647D01*
X93866Y218000D02*
X96134D01*
X114353Y215647D02*
Y224353D01*
X110000Y94353D02*
Y215647D01*
X114000Y91716D02*
Y215647D01*
X112000Y93866D02*
Y215647D01*
X102400Y214000D02*
X115000D01*
X105647Y215647D02*
X114353D01*
X100894Y210000D02*
X115000D01*
X102347Y212000D02*
X115000D01*
X96894Y206000D02*
X115000D01*
X98894Y208000D02*
X115000D01*
X93868Y188000D02*
X115000D01*
X94894Y204000D02*
X115000D01*
X92400Y200000D02*
X115000D01*
X92894Y202000D02*
X115000D01*
X93600Y186000D02*
X115000D01*
X92993Y190000D02*
X115000D01*
X105647Y215647D02*
Y224353D01*
X104000Y94353D02*
Y218284D01*
X108000Y93866D02*
Y215647D01*
X106000Y91716D02*
Y215647D01*
X102400Y212500D02*
Y216369D01*
X97600Y213494D02*
Y216369D01*
X96000Y211894D02*
Y218284D01*
X94000Y209894D02*
Y218284D01*
X102000Y94353D02*
Y211173D01*
X100000Y94353D02*
Y209106D01*
X98000Y94353D02*
Y207106D01*
X96000Y94353D02*
Y205106D01*
X94000Y92400D02*
Y203106D01*
X91716Y224000D02*
X98283D01*
X92000Y223866D02*
Y247500D01*
X91716Y216000D02*
X97600D01*
X92000Y207894D02*
Y216134D01*
X90000Y224353D02*
Y247500D01*
X81717Y224000D02*
X88283D01*
X81717Y216000D02*
X88283D01*
X62400Y206000D02*
X90106D01*
X90000Y205894D02*
Y215647D01*
X88303Y204197D02*
X97600Y213494D01*
X58394Y214000D02*
X97600D01*
X60394Y212000D02*
X96106D01*
X62182Y210000D02*
X94106D01*
X62400Y208000D02*
X92106D01*
X88000Y223866D02*
Y247500D01*
X82000Y223866D02*
Y247500D01*
X86000Y221716D02*
Y247500D01*
X84000Y221716D02*
Y247500D01*
X80000Y224353D02*
Y247500D01*
X71716Y224000D02*
X78284D01*
X78000Y223866D02*
Y247500D01*
X83866Y222000D02*
X86134D01*
X84353Y220000D02*
X85647D01*
X88000Y203827D02*
Y216134D01*
X83866Y218000D02*
X86134D01*
X71716Y216000D02*
X78284D01*
X73866Y222000D02*
X76134D01*
X62400Y204000D02*
X88126D01*
X92400Y198000D02*
X115000D01*
X92400Y201506D02*
X101697Y210803D01*
X92400Y196000D02*
X115000D01*
X92400Y190574D02*
Y201506D01*
X62400Y198000D02*
X87600D01*
Y190574D02*
Y202500D01*
X62400Y196000D02*
X87600D01*
X92400Y192000D02*
X115000D01*
X92400Y194000D02*
X115000D01*
X92000Y92400D02*
Y184152D01*
X91720Y184000D02*
X115000D01*
X62400Y192000D02*
X87600D01*
X88000Y92400D02*
Y184152D01*
X82000Y183866D02*
Y216134D01*
X80000Y184353D02*
Y215647D01*
X86000Y92400D02*
Y218284D01*
X84000Y181717D02*
Y218284D01*
X62400Y200000D02*
X87600D01*
X62400Y202000D02*
X87600D01*
X62400Y194000D02*
X87600D01*
X78000Y183866D02*
Y216134D01*
X67394Y186000D02*
X86400D01*
X65394Y188000D02*
X86132D01*
X69394Y184000D02*
X78284D01*
X63394Y190000D02*
X87007D01*
X62400Y190994D02*
X79129Y174265D01*
X51697Y191697D02*
X79129Y164265D01*
X84353Y180000D02*
X115000D01*
X83866Y182000D02*
X115000D01*
X84353Y170000D02*
X115000D01*
X83866Y178000D02*
X115000D01*
X83866Y172000D02*
X115000D01*
X81717Y174000D02*
X115000D01*
X83866Y162000D02*
X115000D01*
X83866Y168000D02*
X115000D01*
X83866Y158000D02*
X115000D01*
X84353Y160000D02*
X115000D01*
X84353Y140000D02*
X115000D01*
X83866Y152000D02*
X115000D01*
X83866Y142000D02*
X115000D01*
X81717Y154000D02*
X115000D01*
X83866Y132000D02*
X115000D01*
X83866Y138000D02*
X115000D01*
X84000Y161716D02*
Y168283D01*
Y171716D02*
Y178284D01*
X84353Y150000D02*
X115000D01*
X84000Y151716D02*
Y158283D01*
X81717Y184000D02*
X88279D01*
X82000Y173866D02*
Y176134D01*
Y153866D02*
Y156134D01*
Y163866D02*
Y166134D01*
X83866Y148000D02*
X115000D01*
X84000Y141717D02*
Y148284D01*
X84353Y130000D02*
X115000D01*
X84000Y131717D02*
Y138284D01*
X81717Y146000D02*
X115000D01*
X82000Y143866D02*
Y146134D01*
Y133866D02*
Y136134D01*
X84353Y114000D02*
X115000D01*
X84353Y120000D02*
X115000D01*
X84353Y108000D02*
X115000D01*
X84353Y112000D02*
X115000D01*
X83866Y122000D02*
X115000D01*
X83866Y128000D02*
X115000D01*
X84353Y110000D02*
X115000D01*
X83866Y118000D02*
X115000D01*
X113866Y92000D02*
X115000D01*
X111716Y94000D02*
X115000D01*
X114353Y90000D02*
X115000D01*
X82394Y96000D02*
X115000D01*
X84353Y106000D02*
X115000D01*
X84000Y114353D02*
Y118283D01*
Y121716D02*
Y128284D01*
X90000Y92400D02*
Y183600D01*
X84353Y105647D02*
Y114353D01*
X82000D02*
Y116134D01*
Y123866D02*
Y126134D01*
X84000Y94394D02*
Y105647D01*
X82000Y96394D02*
Y105647D01*
X104353Y94000D02*
X108283D01*
X95647Y92400D02*
Y94353D01*
X104353Y92000D02*
X106134D01*
X104353Y90000D02*
X105647D01*
X95647Y94353D02*
X104353D01*
X84394Y94000D02*
X95647D01*
X85994Y92400D02*
X95647D01*
X81717Y166000D02*
X115000D01*
X81717Y176000D02*
X115000D01*
X81717Y164000D02*
X115000D01*
X80000Y164353D02*
Y165647D01*
X81717Y144000D02*
X115000D01*
X81717Y156000D02*
X115000D01*
X81717Y136000D02*
X115000D01*
X80000Y134353D02*
Y135647D01*
X77394Y176000D02*
X78284D01*
X78000Y175394D02*
Y176134D01*
X80000Y174353D02*
Y175647D01*
X78000Y165394D02*
Y166134D01*
X75394Y168000D02*
X76134D01*
X71394Y182000D02*
X76134D01*
X51697Y171697D02*
X79129Y144265D01*
X51697Y181697D02*
X79129Y154265D01*
X80000Y154353D02*
Y155647D01*
X78000Y155394D02*
Y156134D01*
X80000Y144353D02*
Y145647D01*
X78000Y145394D02*
Y146134D01*
X77394Y156000D02*
X78284D01*
X77394Y166000D02*
X78284D01*
X77394Y146000D02*
X78284D01*
X81717Y126000D02*
X115000D01*
X81717Y134000D02*
X115000D01*
X81717Y116000D02*
X115000D01*
X81717Y124000D02*
X115000D01*
X76394Y102000D02*
X115000D01*
X80394Y98000D02*
X115000D01*
X78394Y100000D02*
X115000D01*
X75647Y105647D02*
X84353D01*
X75647Y114353D02*
X84353D01*
X74394Y104000D02*
X115000D01*
X71371Y107023D02*
X85994Y92400D01*
X80000Y114353D02*
Y115647D01*
Y124353D02*
Y125647D01*
X78000Y123866D02*
Y126134D01*
Y133866D02*
Y136134D01*
Y114353D02*
Y116134D01*
X80000Y98394D02*
Y105647D01*
X78894Y92000D02*
X79606D01*
X80894Y90000D02*
X81606D01*
X80000Y90894D02*
Y91606D01*
X78000Y100394D02*
Y105647D01*
X76894Y94000D02*
X77606D01*
X78000Y92894D02*
Y93606D01*
X72000Y223866D02*
Y247500D01*
X70000Y224353D02*
Y247500D01*
X76000Y221716D02*
Y247500D01*
X74000Y221716D02*
Y247500D01*
X61717Y224000D02*
X68283D01*
X68000Y223866D02*
Y247500D01*
X63866Y222000D02*
X66134D01*
X73866Y218000D02*
X76134D01*
X74353Y220000D02*
X75647D01*
X76000Y181717D02*
Y218284D01*
X72000Y181394D02*
Y216134D01*
X61717Y216000D02*
X68283D01*
X63866Y218000D02*
X66134D01*
X70000Y183394D02*
Y215647D01*
X68000Y185394D02*
Y216134D01*
X66000Y221716D02*
Y247500D01*
X64000Y221716D02*
Y247500D01*
X66000Y187394D02*
Y218284D01*
X64353Y220000D02*
X65647D01*
X62000Y223866D02*
Y247500D01*
X60000Y224353D02*
Y247500D01*
X64000Y189394D02*
Y218284D01*
X62000Y210327D02*
Y216134D01*
X61394Y182000D02*
X64606D01*
X62400Y190994D02*
Y209000D01*
X59394Y184000D02*
X62606D01*
X60000Y212394D02*
Y215647D01*
Y183394D02*
Y186606D01*
X73394Y180000D02*
X75647D01*
X74000Y179394D02*
Y218284D01*
X75394Y178000D02*
X76134D01*
X76000Y177394D02*
Y178284D01*
X67394Y176000D02*
X70606D01*
X65394Y178000D02*
X68606D01*
X72000Y171394D02*
Y174606D01*
X70000Y173394D02*
Y176606D01*
X73394Y170000D02*
X75647D01*
X71394Y172000D02*
X74606D01*
X76000Y167394D02*
Y168283D01*
X74000Y169394D02*
Y172606D01*
X69394Y174000D02*
X72606D01*
X65394Y168000D02*
X68606D01*
X67394Y166000D02*
X70606D01*
X70000Y163394D02*
Y166606D01*
X63394Y180000D02*
X66606D01*
X64000Y179394D02*
Y182606D01*
X68000Y175394D02*
Y178606D01*
X66000Y177394D02*
Y180606D01*
X59394Y174000D02*
X62606D01*
X62000Y181394D02*
Y184606D01*
Y171394D02*
Y174606D01*
X60000Y173394D02*
Y176606D01*
X63394Y170000D02*
X66606D01*
X64000Y169394D02*
Y172606D01*
X68000Y165394D02*
Y168606D01*
X66000Y167394D02*
Y170606D01*
X61394Y172000D02*
X64606D01*
X60000Y163394D02*
Y166606D01*
X62000Y161394D02*
Y164606D01*
X56394Y216000D02*
X58284D01*
X58000Y223866D02*
Y247500D01*
Y214394D02*
Y216134D01*
X56061Y209544D02*
X57600Y208006D01*
X54394Y218000D02*
X56134D01*
X50394Y222000D02*
X56134D01*
X55663Y209943D02*
X56061Y209544D01*
Y206000D02*
X57600D01*
X56061Y208000D02*
X57600D01*
X56061Y202000D02*
X57600D01*
X56061Y204000D02*
X57600D01*
X53912Y198000D02*
X57600D01*
X53912Y200000D02*
X57600D01*
X52327Y194000D02*
X57600D01*
X53857Y196000D02*
X57600D01*
X56000Y221716D02*
Y247500D01*
X54000Y218394D02*
Y247500D01*
X56061Y200057D02*
Y209544D01*
X56000Y216394D02*
Y218284D01*
X52394Y220000D02*
X55647D01*
X52000Y220394D02*
Y247500D01*
X54000Y209943D02*
Y211606D01*
X52000Y209943D02*
Y213606D01*
X53912Y200057D02*
X56061D01*
X53912Y196512D02*
Y200057D01*
X52697Y194303D02*
X53209Y194815D01*
X57600Y190000D02*
Y208006D01*
X58303Y188303D02*
X75735Y170871D01*
X58000Y185394D02*
Y188673D01*
X53394Y190000D02*
X57600D01*
X51327Y192000D02*
X57600D01*
X55394Y188000D02*
X58606D01*
X57394Y176000D02*
X60606D01*
X58000Y175394D02*
Y178606D01*
X57394Y166000D02*
X60606D01*
X58000Y165394D02*
Y168606D01*
X57394Y186000D02*
X60606D01*
X53394Y180000D02*
X56606D01*
X55394Y168000D02*
X58606D01*
X55394Y178000D02*
X58606D01*
X56000Y187394D02*
Y200057D01*
X54000Y189394D02*
Y200057D01*
X56000Y177394D02*
Y180606D01*
X54000Y179394D02*
Y182606D01*
X52000Y191394D02*
Y193818D01*
X50000Y182400D02*
Y186606D01*
X51327Y182000D02*
X54606D01*
X52000Y181394D02*
Y184606D01*
X53394Y170000D02*
X56606D01*
X52000Y171394D02*
Y174606D01*
X56000Y167394D02*
Y170606D01*
X54000Y169394D02*
Y172606D01*
X51327Y172000D02*
X54606D01*
X50000Y172400D02*
Y176606D01*
Y132400D02*
Y166606D01*
X75394Y158000D02*
X76134D01*
X74000Y159394D02*
Y162606D01*
X76000Y157394D02*
Y158283D01*
X74000Y149394D02*
Y152606D01*
X71394Y162000D02*
X74606D01*
X69394Y164000D02*
X72606D01*
X73394Y160000D02*
X75647D01*
X71394Y152000D02*
X74606D01*
X76000Y132400D02*
Y138284D01*
Y147394D02*
Y148284D01*
Y114353D02*
Y117600D01*
Y122400D02*
Y127600D01*
X75394Y148000D02*
X76134D01*
X73394Y150000D02*
X75647D01*
X74000Y122400D02*
Y127600D01*
Y132400D02*
Y142606D01*
X69394Y154000D02*
X72606D01*
X72000Y161394D02*
Y164606D01*
Y151394D02*
Y154606D01*
X70000Y153394D02*
Y156606D01*
X67394Y156000D02*
X70606D01*
X66000Y157394D02*
Y160606D01*
X68000Y155394D02*
Y158606D01*
X66000Y132400D02*
Y150606D01*
X72000Y132400D02*
Y144606D01*
X70000Y132400D02*
Y146606D01*
X72000Y122400D02*
Y127600D01*
X70000Y122400D02*
Y127600D01*
X68000Y122400D02*
Y127600D01*
Y132400D02*
Y148606D01*
X66000Y122400D02*
Y127600D01*
X75647Y105647D02*
Y114353D01*
X72394Y106000D02*
X75647D01*
X76000Y102394D02*
Y105647D01*
X74000Y104394D02*
Y117600D01*
X71368Y108000D02*
X75647D01*
X70493Y110000D02*
X75647D01*
X72000Y106394D02*
Y117600D01*
X70894Y100000D02*
X71606D01*
X74894Y96000D02*
X75606D01*
X74000Y96894D02*
Y97606D01*
X76000Y94894D02*
Y95606D01*
X73394Y90000D02*
X74106D01*
X72894Y98000D02*
X73606D01*
X72000Y98894D02*
Y99606D01*
X71394Y92000D02*
X72106D01*
X72000Y91394D02*
Y92106D01*
X70000Y110493D02*
Y117600D01*
Y100894D02*
Y101606D01*
X68894Y102000D02*
X69606D01*
X68000Y111368D02*
Y117600D01*
X66000Y111100D02*
Y117600D01*
X68000Y102894D02*
Y103606D01*
X67394Y96000D02*
X68106D01*
X68000Y95394D02*
Y96106D01*
X69394Y94000D02*
X70106D01*
X70000Y93394D02*
Y94106D01*
X65894Y90000D02*
X66606D01*
X66000Y97394D02*
Y98106D01*
Y89894D02*
Y90606D01*
X63394Y160000D02*
X66606D01*
X64000Y159394D02*
Y162606D01*
X65394Y158000D02*
X68606D01*
X64000Y132400D02*
Y152606D01*
X61394Y162000D02*
X64606D01*
X59394Y164000D02*
X62606D01*
X62000Y132400D02*
Y154606D01*
X60000Y132400D02*
Y156606D01*
X64000Y122400D02*
Y127600D01*
X62000Y122400D02*
Y127600D01*
X62993Y110000D02*
X64507D01*
X64000Y109221D02*
Y117600D01*
X60000Y111400D02*
Y117600D01*
Y122400D02*
Y127600D01*
X62000Y110848D02*
Y117600D01*
X58000Y132400D02*
Y158606D01*
X56000Y132400D02*
Y160606D01*
X58000Y122400D02*
Y127600D01*
X56000Y122400D02*
Y127600D01*
X54000Y132400D02*
Y162606D01*
X52000Y132400D02*
Y164606D01*
X54000Y122400D02*
Y127600D01*
X52000Y122400D02*
Y127600D01*
X58000Y110848D02*
Y117600D01*
X54000Y111100D02*
Y117600D01*
X55493Y110000D02*
X57007D01*
X56000Y109221D02*
Y117600D01*
X52000Y111368D02*
Y117600D01*
X50000Y122400D02*
Y127600D01*
Y110493D02*
Y117600D01*
X63394Y100000D02*
X64106D01*
X65394Y98000D02*
X66106D01*
X64000Y99394D02*
Y100106D01*
X61394Y102000D02*
X62106D01*
X62000Y101394D02*
Y102106D01*
X58000Y97894D02*
Y98606D01*
X61894Y94000D02*
X62606D01*
X62000Y93894D02*
Y94606D01*
X63894Y92000D02*
X64606D01*
X64000Y91894D02*
Y92606D01*
X59894Y96000D02*
X60606D01*
X57894Y98000D02*
X58606D01*
X60000Y95894D02*
Y96606D01*
X58394Y90000D02*
X59106D01*
X53894Y102000D02*
X54606D01*
X54000Y101894D02*
Y102606D01*
X55894Y100000D02*
X56606D01*
X56000Y99894D02*
Y100606D01*
X50000Y98394D02*
Y99106D01*
X52000Y96394D02*
Y97106D01*
X50394Y98000D02*
X51106D01*
X56000Y92394D02*
Y93106D01*
X54394Y94000D02*
X55106D01*
X58000Y90394D02*
Y91106D01*
X56394Y92000D02*
X57106D01*
X54000Y94394D02*
Y95106D01*
X52394Y96000D02*
X53106D01*
X50894Y90000D02*
X51606D01*
X111716Y86000D02*
X115000D01*
X113866Y88000D02*
X115000D01*
X113866Y82000D02*
X115000D01*
X114000Y81717D02*
Y88283D01*
X111716Y84000D02*
X115000D01*
X113866Y78000D02*
X115000D01*
X114353Y80000D02*
X115000D01*
X114353Y70000D02*
X115000D01*
X114000Y71716D02*
Y78284D01*
X111716Y74000D02*
X115000D01*
X111716Y76000D02*
X115000D01*
X113866Y72000D02*
X115000D01*
X110000Y84353D02*
Y85647D01*
X112000Y83866D02*
Y86134D01*
X108000Y83866D02*
Y86134D01*
X104353Y85647D02*
Y94353D01*
X106000Y81717D02*
Y88283D01*
X110000Y74353D02*
Y75647D01*
X112000Y73866D02*
Y76134D01*
X108000Y73866D02*
Y76134D01*
X106000Y71716D02*
Y78284D01*
X104353Y80000D02*
X105647D01*
X113866Y62000D02*
X115000D01*
X113866Y68000D02*
X115000D01*
Y2500D02*
Y247500D01*
X114000Y61717D02*
Y68283D01*
X111716Y66000D02*
X115000D01*
X111716Y64000D02*
X115000D01*
X113866Y58000D02*
X115000D01*
X114353Y60000D02*
X115000D01*
X113866Y52000D02*
X115000D01*
X114000Y51717D02*
Y58284D01*
X111716Y56000D02*
X115000D01*
X111716Y54000D02*
X115000D01*
X112000Y63866D02*
Y66134D01*
X110000Y64353D02*
Y65647D01*
X108000Y63866D02*
Y66134D01*
X106000Y61717D02*
Y68283D01*
X110000Y54353D02*
Y55647D01*
X112000Y53866D02*
Y56134D01*
X108000Y53866D02*
Y56134D01*
X104353Y60000D02*
X105647D01*
X106000Y51717D02*
Y58284D01*
X104353Y86000D02*
X108283D01*
X104353Y88000D02*
X106134D01*
X103866Y82000D02*
X106134D01*
X104000Y81717D02*
Y85647D01*
X101716Y84000D02*
X108283D01*
X95647Y85647D02*
X104353D01*
X102000Y83866D02*
Y85647D01*
X103866Y78000D02*
X106134D01*
X102000Y73866D02*
Y76134D01*
X103866Y72000D02*
X106134D01*
X104000Y71716D02*
Y78284D01*
X101716Y76000D02*
X108283D01*
X101716Y74000D02*
X108283D01*
X100000Y74353D02*
Y75647D01*
Y84353D02*
Y85647D01*
X95647D02*
Y87600D01*
X98000Y83866D02*
Y85647D01*
X96000Y82400D02*
Y85647D01*
X84894Y86000D02*
X95647D01*
X85000Y87600D02*
X95647D01*
X86894Y84000D02*
X98283D01*
X94000Y82400D02*
Y87600D01*
X89394Y74000D02*
X98283D01*
X98000Y73866D02*
Y76134D01*
X90994Y72400D02*
X96369D01*
X96000D02*
Y77600D01*
X87500D02*
X96369D01*
X88494Y82400D02*
X96369D01*
X87394Y76000D02*
X98283D01*
X103866Y68000D02*
X106134D01*
X104353Y70000D02*
X105647D01*
X101716Y64000D02*
X108283D01*
X104000Y61717D02*
Y68283D01*
X101716Y66000D02*
X108283D01*
X103866Y58000D02*
X106134D01*
X103866Y62000D02*
X106134D01*
X104000Y51717D02*
Y58284D01*
X102000Y53866D02*
Y56134D01*
X101716Y56000D02*
X108283D01*
X101716Y54000D02*
X108283D01*
X102000Y63866D02*
Y66134D01*
X100000Y64353D02*
Y65647D01*
X98000Y63866D02*
Y66134D01*
X96000Y62400D02*
Y67600D01*
X89894Y66000D02*
X98283D01*
X90000Y67600D02*
X96369D01*
X91894Y64000D02*
X98283D01*
X93494Y62400D02*
X96369D01*
X100000Y54353D02*
Y55647D01*
X98000Y53866D02*
Y56134D01*
X95994Y52400D02*
X96369D01*
X96000D02*
Y57600D01*
X92394Y56000D02*
X98283D01*
X92500Y57600D02*
X96369D01*
X94394Y54000D02*
X98283D01*
X113866Y48000D02*
X115000D01*
X114353Y50000D02*
X115000D01*
X113866Y42000D02*
X115000D01*
X114000Y41717D02*
Y48283D01*
X111716Y46000D02*
X115000D01*
X111716Y44000D02*
X115000D01*
X113866Y38000D02*
X115000D01*
X114353Y40000D02*
X115000D01*
X113866Y32000D02*
X115000D01*
X114000Y31716D02*
Y38284D01*
X111716Y36000D02*
X115000D01*
X111716Y34000D02*
X115000D01*
X112000Y33866D02*
Y36134D01*
X110000Y44353D02*
Y45647D01*
X112000Y43866D02*
Y46134D01*
X104353Y50000D02*
X105647D01*
X108000Y43866D02*
Y46134D01*
X106000Y41717D02*
Y48283D01*
X110000Y34353D02*
Y35647D01*
X108000Y33866D02*
Y36134D01*
X106000Y31716D02*
Y38284D01*
X104353Y40000D02*
X105647D01*
X104353Y30000D02*
X105647D01*
X113866Y28000D02*
X115000D01*
X114353Y30000D02*
X115000D01*
X114000Y21716D02*
Y28284D01*
X112000Y23866D02*
Y26134D01*
X111716Y26000D02*
X115000D01*
X114353Y20000D02*
X115000D01*
X113866Y22000D02*
X115000D01*
X113866Y18000D02*
X115000D01*
X114000Y2500D02*
Y18283D01*
X111716Y24000D02*
X115000D01*
X111716Y16000D02*
X115000D01*
X112000Y2500D02*
Y16134D01*
X110000Y24353D02*
Y25647D01*
X108000Y23866D02*
Y26134D01*
X106000Y21716D02*
Y28284D01*
X104000Y21716D02*
Y28284D01*
X110000Y2500D02*
Y15647D01*
X108000Y2500D02*
Y16134D01*
X106000Y2500D02*
Y18283D01*
X104353Y20000D02*
X105647D01*
X104000Y2500D02*
Y18283D01*
X103866Y48000D02*
X106134D01*
X103866Y52000D02*
X106134D01*
X104000Y41717D02*
Y48283D01*
X102000Y43866D02*
Y46134D01*
X101716Y46000D02*
X108283D01*
X100000Y44353D02*
Y45647D01*
X97697Y45697D02*
X99129Y44265D01*
X101716Y44000D02*
X108283D01*
X103866Y42000D02*
X106134D01*
X101716Y36000D02*
X108283D01*
X103866Y38000D02*
X106134D01*
X97394Y36000D02*
X98283D01*
X100000Y34353D02*
Y35647D01*
X96000Y46400D02*
Y47600D01*
X98000Y45394D02*
Y46134D01*
X95000Y47600D02*
X96369D01*
X94494Y46400D02*
X96000D01*
X97327Y46000D02*
X98283D01*
X95394Y38000D02*
X96134D01*
X98000Y35394D02*
Y36134D01*
X96000Y37394D02*
Y38284D01*
X95006Y41600D02*
X95735Y40871D01*
X93500Y41600D02*
X95006D01*
X93400Y40000D02*
X95647D01*
X103866Y32000D02*
X106134D01*
X102000Y33866D02*
Y36134D01*
X103866Y28000D02*
X106134D01*
X104000Y31716D02*
Y38284D01*
X101716Y34000D02*
X108283D01*
X102000Y23866D02*
Y26134D01*
X101716Y26000D02*
X108283D01*
X103866Y22000D02*
X106134D01*
X103866Y18000D02*
X106134D01*
X102000Y2500D02*
Y16134D01*
X101716Y24000D02*
X108283D01*
X100000Y24353D02*
Y25647D01*
X101716Y16000D02*
X108283D01*
X93400Y39994D02*
X99129Y34265D01*
X89303Y37303D02*
X95735Y30871D01*
X98000Y23866D02*
Y26134D01*
X96000Y21716D02*
Y28284D01*
X74341Y30000D02*
X95647D01*
X74013Y32000D02*
X94606D01*
X70572Y26000D02*
X98283D01*
X73686Y28000D02*
X96134D01*
X74353Y22000D02*
X96134D01*
X96000Y2500D02*
Y18283D01*
X100000Y2500D02*
Y15647D01*
X98000Y2500D02*
Y16134D01*
X74353Y24000D02*
X98283D01*
X74353Y20000D02*
X95647D01*
X74353Y18000D02*
X96134D01*
X88000Y82894D02*
Y87600D01*
X86000Y84894D02*
Y87600D01*
X92000Y82400D02*
Y87600D01*
X90000Y82400D02*
Y87600D01*
X82894Y88000D02*
X83673D01*
X84000Y86894D02*
Y87818D01*
X88000Y75394D02*
Y77600D01*
X86000Y77394D02*
Y78127D01*
X83394Y80000D02*
X84106D01*
X81394Y82000D02*
X82106D01*
X85394Y78000D02*
X86173D01*
X84000Y79394D02*
Y80106D01*
X82000Y88894D02*
Y89606D01*
X78000Y85394D02*
Y86106D01*
X79394Y84000D02*
X80106D01*
X80000Y83394D02*
Y84106D01*
X75394Y88000D02*
X76106D01*
X74000Y89394D02*
Y90106D01*
X77394Y86000D02*
X78106D01*
X76000Y87394D02*
Y88106D01*
X82000Y81394D02*
Y82106D01*
X78000Y77894D02*
Y78606D01*
X79894Y76000D02*
X80606D01*
X80000Y75894D02*
Y76606D01*
X75894Y80000D02*
X76606D01*
X76000Y79894D02*
Y80606D01*
X77894Y78000D02*
X78606D01*
X94000Y72400D02*
Y77600D01*
X90000Y73394D02*
Y77600D01*
X92000Y72400D02*
Y77600D01*
X88000Y67894D02*
Y68606D01*
X83894Y72000D02*
X84606D01*
X84000Y71894D02*
Y72606D01*
X85894Y70000D02*
X86606D01*
X86000Y69894D02*
Y70606D01*
X90000Y65894D02*
Y67600D01*
X94000Y62400D02*
Y67600D01*
X92000Y63894D02*
Y67600D01*
X87894Y68000D02*
X88673D01*
X84394Y64000D02*
X85106D01*
X84000Y64394D02*
Y65106D01*
X81894Y74000D02*
X82606D01*
X82000Y73894D02*
Y74606D01*
X80000Y68394D02*
Y69106D01*
X78394Y70000D02*
X79106D01*
X76000Y72394D02*
Y73106D01*
X74394Y74000D02*
X75106D01*
X78000Y70394D02*
Y71106D01*
X76394Y72000D02*
X77106D01*
X82000Y66394D02*
Y67106D01*
X80394Y68000D02*
X81106D01*
X82394Y66000D02*
X83106D01*
X78000Y62894D02*
Y63606D01*
X76000Y64894D02*
Y65606D01*
X74894Y66000D02*
X75606D01*
X76894Y64000D02*
X77606D01*
X69894Y86000D02*
X70606D01*
X68000Y87894D02*
Y88606D01*
X72000Y83894D02*
Y84606D01*
X70000Y85894D02*
Y86606D01*
X67977Y103629D02*
X83303Y88303D01*
X67894Y88000D02*
X68606D01*
X67288Y103606D02*
X88494Y82400D01*
X64000Y84394D02*
Y85106D01*
X73894Y82000D02*
X74606D01*
X71894Y84000D02*
X72606D01*
X74000Y81894D02*
Y82606D01*
X68394Y80000D02*
X69106D01*
X66000Y82394D02*
Y83106D01*
X64394Y84000D02*
X65106D01*
X68000Y80394D02*
Y81106D01*
X66394Y82000D02*
X67106D01*
X60394Y88000D02*
X61106D01*
X60000Y88394D02*
Y89106D01*
X62394Y86000D02*
X63106D01*
X62000Y86394D02*
Y87106D01*
X52894Y88000D02*
X53606D01*
X52000Y88894D02*
Y89606D01*
X54894Y86000D02*
X55606D01*
X54000Y86894D02*
Y87606D01*
X60000Y80894D02*
Y81606D01*
X58894Y82000D02*
X59606D01*
X62000Y78894D02*
Y79606D01*
X60894Y80000D02*
X61606D01*
X56894Y84000D02*
X57606D01*
X56000Y84894D02*
Y85606D01*
X58000Y82894D02*
Y83606D01*
X60477Y103629D02*
X85803Y78303D01*
X70000Y78394D02*
Y79106D01*
X72000Y76394D02*
Y77106D01*
X70394Y78000D02*
X71106D01*
X59788Y103606D02*
X90994Y72400D01*
X52977Y103629D02*
X88303Y68303D01*
X52288Y103606D02*
X93494Y62400D01*
X52263Y77600D02*
X88600Y41263D01*
X74000Y74394D02*
Y75106D01*
X72394Y76000D02*
X73106D01*
X74000Y66894D02*
Y67606D01*
X72894Y68000D02*
X73606D01*
X70000Y70894D02*
Y71606D01*
X68894Y72000D02*
X69606D01*
X72000Y68894D02*
Y69606D01*
X70894Y70000D02*
X71606D01*
X64894Y76000D02*
X65606D01*
X64000Y76894D02*
Y77606D01*
X66894Y74000D02*
X67606D01*
X66000Y74894D02*
Y75606D01*
X62894Y78000D02*
X63606D01*
X50000Y62400D02*
Y77600D01*
X54000Y59394D02*
Y75863D01*
X52000Y61394D02*
Y77600D01*
X68000Y72894D02*
Y73606D01*
X66000Y52400D02*
Y63863D01*
X64000Y52400D02*
Y65863D01*
X62000Y52400D02*
Y67863D01*
X58000Y57492D02*
Y71863D01*
X56000Y58770D02*
Y73863D01*
X60000Y52400D02*
Y69863D01*
X90394Y58000D02*
X91173D01*
X92000Y56394D02*
Y57653D01*
X88000Y60394D02*
Y61106D01*
X86394Y62000D02*
X87106D01*
X90000Y58394D02*
Y59106D01*
X88394Y60000D02*
X89106D01*
X94000Y54394D02*
Y57600D01*
X90894Y50000D02*
X91606D01*
X92894Y48000D02*
X93673D01*
X92000Y48894D02*
Y49606D01*
X88000Y52894D02*
Y53606D01*
X86894Y54000D02*
X87606D01*
X90000Y50894D02*
Y51606D01*
X88894Y52000D02*
X89606D01*
X86000Y62394D02*
Y63106D01*
X82000Y58894D02*
Y59606D01*
X84000Y56894D02*
Y57606D01*
X82894Y58000D02*
X83606D01*
X80000Y60894D02*
Y61606D01*
X78894Y62000D02*
X79606D01*
X80894Y60000D02*
X81606D01*
X72000Y53866D02*
Y57863D01*
X86000Y54894D02*
Y55606D01*
X84894Y56000D02*
X85606D01*
X74353Y50000D02*
X79863D01*
X74000Y51717D02*
Y55863D01*
X73866Y52000D02*
X77863D01*
X71716Y54000D02*
X75863D01*
X73866Y48000D02*
X81863D01*
X94000Y46894D02*
Y47818D01*
X93400Y39994D02*
Y41602D01*
X94000Y39394D02*
Y41600D01*
X88600Y39000D02*
Y41263D01*
X73944Y42000D02*
X87863D01*
X72045Y44000D02*
X85863D01*
X88000Y2500D02*
Y41863D01*
X86000Y2500D02*
Y43863D01*
X90000Y2500D02*
Y36606D01*
X94000Y2500D02*
Y32606D01*
X92000Y2500D02*
Y34606D01*
X73780Y38000D02*
X88818D01*
X74350Y40000D02*
X88600D01*
X72317Y34000D02*
X92606D01*
X80000Y2500D02*
Y49863D01*
X78000Y2500D02*
Y51863D01*
X84000Y2500D02*
Y45863D01*
X82000Y2500D02*
Y47863D01*
X71716Y46000D02*
X83863D01*
X72000Y44024D02*
Y46134D01*
X76000Y2500D02*
Y53863D01*
X74000Y41874D02*
Y48283D01*
Y24825D02*
Y28598D01*
Y32032D02*
Y38441D01*
X74353Y16120D02*
Y24825D01*
X74000Y2500D02*
Y16120D01*
X72000Y24825D02*
Y26449D01*
Y34181D02*
Y36291D01*
Y2500D02*
Y16120D01*
X70000Y54353D02*
Y59863D01*
X58770Y54000D02*
X68283D01*
X68000Y53866D02*
Y61863D01*
X53394Y60000D02*
X69863D01*
X51327Y62000D02*
X67863D01*
X58770Y56000D02*
X73863D01*
X57492Y58000D02*
X71863D01*
X70000Y44510D02*
Y45647D01*
X68000Y44024D02*
Y46134D01*
X57907Y52400D02*
X66369D01*
X57500Y42400D02*
X66269D01*
X56894Y36000D02*
X68711D01*
X58494Y37600D02*
X66478D01*
X58000Y42400D02*
Y47600D01*
X62000Y42400D02*
Y47600D01*
X60000Y42400D02*
Y47600D01*
X51697Y61697D02*
X54523Y58871D01*
X50000Y52400D02*
Y56606D01*
X66000Y42400D02*
Y47600D01*
X64000Y42400D02*
Y47600D01*
X56000Y41873D02*
Y47600D01*
X54000Y39894D02*
Y47600D01*
X52000Y37894D02*
Y47600D01*
X71289Y36000D02*
X90606D01*
X70000Y34668D02*
Y35805D01*
Y24825D02*
Y25962D01*
X68000Y24825D02*
Y26449D01*
Y34181D02*
Y36291D01*
X54894Y34000D02*
X67683D01*
X70000Y2500D02*
Y16120D01*
X65647Y24825D02*
X74353D01*
X65647Y16120D02*
X74353D01*
X68000Y2500D02*
Y16120D01*
X66000Y32032D02*
Y37600D01*
X64000Y2500D02*
Y37600D01*
X62000Y2500D02*
Y37600D01*
X60000Y2500D02*
Y37600D01*
X54000Y2500D02*
Y33106D01*
X50000Y35894D02*
Y47600D01*
X58000Y2500D02*
Y37106D01*
X56000Y2500D02*
Y35106D01*
X66000Y24825D02*
Y28598D01*
X52894Y32000D02*
X65987D01*
X66000Y2500D02*
Y16120D01*
X65647D02*
Y24825D01*
X50894Y30000D02*
X65659D01*
X52000Y2500D02*
Y31106D01*
X50000Y2500D02*
Y29106D01*
X46394Y226000D02*
X115000D01*
X46000Y226394D02*
Y247500D01*
X50000Y222394D02*
Y247500D01*
X48000Y224394D02*
Y247500D01*
X42394Y230000D02*
X115000D01*
X40327Y232000D02*
X115000D01*
X44394Y228000D02*
X115000D01*
X40697Y231697D02*
X61697Y210697D01*
X48394Y224000D02*
X58284D01*
X44093Y216000D02*
X49606D01*
X43472Y212000D02*
X53606D01*
X44355Y214000D02*
X51606D01*
X42232Y218000D02*
X47606D01*
X42888Y210000D02*
X55606D01*
X40000Y232182D02*
Y247500D01*
X44000Y228394D02*
Y247500D01*
X42000Y230394D02*
Y247500D01*
X34000Y232400D02*
Y247500D01*
X32000Y232400D02*
Y247500D01*
X38000Y232400D02*
Y247500D01*
X36000Y232400D02*
Y247500D01*
X42000Y218107D02*
Y223606D01*
X40000Y218381D02*
Y225606D01*
X44000Y209943D02*
Y212816D01*
Y216208D02*
Y221606D01*
X38000Y217515D02*
Y227600D01*
X38088Y209943D02*
Y211438D01*
X50000Y209943D02*
Y215606D01*
X48000Y209943D02*
Y217606D01*
X46962Y209943D02*
X55663D01*
X46962Y200057D02*
Y209943D01*
X38006Y227600D02*
X55663Y209943D01*
X42888D02*
X45038D01*
X46000Y198400D02*
Y219606D01*
X45038Y200057D02*
Y209943D01*
X46962Y200057D02*
X49112D01*
X45038Y206000D02*
X46962D01*
X49112Y198400D02*
Y200057D01*
X48000Y198400D02*
Y200057D01*
X45038Y204000D02*
X46962D01*
X45038Y208000D02*
X46962D01*
X45038Y202000D02*
X46962D01*
X35939Y200057D02*
X45038D01*
X42888Y209943D02*
Y211438D01*
X38000Y209943D02*
Y211509D01*
X36000Y209943D02*
Y227600D01*
X35939Y200057D02*
Y202600D01*
Y209943D02*
X38088D01*
X35939Y207400D02*
Y209943D01*
X34000Y207400D02*
Y227600D01*
X32000Y207400D02*
Y227600D01*
X40000Y198400D02*
Y200057D01*
X38000Y198400D02*
Y200057D01*
X44000Y198400D02*
Y200057D01*
X42000Y198400D02*
Y200057D01*
X34000Y198400D02*
Y202600D01*
X32000Y198400D02*
Y202600D01*
X36000Y198400D02*
Y200057D01*
X2500Y238000D02*
X115000D01*
X2500Y240000D02*
X115000D01*
X14825Y234000D02*
X115000D01*
X2500Y236000D02*
X115000D01*
X2500Y246000D02*
X115000D01*
X2500Y247500D02*
X115000D01*
X2500Y242000D02*
X115000D01*
X2500Y244000D02*
X115000D01*
X28348Y222000D02*
X43606D01*
X16169Y227600D02*
X38006D01*
X28900Y220000D02*
X45606D01*
X28348Y218000D02*
X38744D01*
X14825Y226000D02*
X39606D01*
X16169Y232400D02*
X39000D01*
X14825Y224000D02*
X41606D01*
X14825Y216000D02*
X36883D01*
X30000Y232400D02*
Y247500D01*
X28000Y232400D02*
Y247500D01*
Y222492D02*
Y227600D01*
X26000Y232400D02*
Y247500D01*
X24000Y232400D02*
Y247500D01*
X22000Y232400D02*
Y247500D01*
X26000Y223770D02*
Y227600D01*
X22000Y222492D02*
Y227600D01*
X24000Y223770D02*
Y227600D01*
Y212400D02*
Y216230D01*
X22000Y212400D02*
Y217508D01*
X16169Y222400D02*
X21926D01*
X14825Y214000D02*
X36622D01*
X28394Y210000D02*
X38088D01*
X30000Y208394D02*
Y227600D01*
X30994Y207400D02*
X35939D01*
X30394Y208000D02*
X35939D01*
X26327Y212000D02*
X37505D01*
X26697Y211697D02*
X30994Y207400D01*
X28900Y200000D02*
X49112D01*
X30000Y202600D02*
X35939D01*
X29994Y198400D02*
X49112D01*
X30000D02*
Y202600D01*
X28348Y202000D02*
X35939D01*
X28871Y199523D02*
X29994Y198400D01*
X26000Y212182D02*
Y216230D01*
X28000Y210394D02*
Y217508D01*
X16169Y212400D02*
X25000D01*
X24000Y203770D02*
Y207600D01*
X24006D02*
X28303Y203303D01*
X22000Y202492D02*
Y207600D01*
X28000Y202492D02*
Y203606D01*
X26000Y203770D02*
Y205606D01*
X22000Y192400D02*
Y197508D01*
X14825Y206000D02*
X25606D01*
X16169Y207600D02*
X24006D01*
X14825Y204000D02*
X27606D01*
X50000Y192400D02*
Y193600D01*
X48000Y192400D02*
Y193600D01*
X29000D02*
X51000D01*
X42000Y192400D02*
Y193600D01*
X46000Y192400D02*
Y193600D01*
X44000Y192400D02*
Y193600D01*
X48000Y182400D02*
Y187600D01*
X46000Y182400D02*
Y187600D01*
X44000Y182400D02*
Y187600D01*
X42000Y182400D02*
Y187600D01*
X46000Y172400D02*
Y177600D01*
X44000Y172400D02*
Y177600D01*
X40000Y192400D02*
Y193600D01*
X38000Y192400D02*
Y193600D01*
X40000Y182400D02*
Y187600D01*
X38000Y182400D02*
Y187600D01*
X32000Y192400D02*
Y193600D01*
X30000Y192400D02*
Y193600D01*
X36000Y192400D02*
Y193600D01*
X34000Y192400D02*
Y193600D01*
X36000Y182400D02*
Y187600D01*
X34000Y182400D02*
Y187600D01*
X42000Y172400D02*
Y177600D01*
X40000Y172400D02*
Y177600D01*
X32000Y182400D02*
Y187600D01*
X30000Y182400D02*
Y187600D01*
Y172400D02*
Y177600D01*
X49006D02*
X75735Y150871D01*
X49006Y187600D02*
X75735Y160871D01*
X28348Y162000D02*
X54606D01*
X48000Y172400D02*
Y177600D01*
X49006Y167600D02*
X75735Y140871D01*
X48000Y132400D02*
Y167600D01*
X28900Y150000D02*
X66606D01*
X28900Y160000D02*
X56606D01*
X28900Y140000D02*
X75647D01*
X48000Y122400D02*
Y127600D01*
X28348Y152000D02*
X64606D01*
X28348Y158000D02*
X58606D01*
X28348Y138000D02*
X76134D01*
X28348Y148000D02*
X68606D01*
X42000Y132400D02*
Y167600D01*
X40000Y132400D02*
Y167600D01*
X46000Y132400D02*
Y167600D01*
X44000Y132400D02*
Y167600D01*
X34000Y172400D02*
Y177600D01*
X32000Y172400D02*
Y177600D01*
X38000Y172400D02*
Y177600D01*
X36000Y172400D02*
Y177600D01*
X38000Y132400D02*
Y167600D01*
X36000Y132400D02*
Y167600D01*
X42000Y122400D02*
Y127600D01*
X40000Y122400D02*
Y127600D01*
X32000Y132400D02*
Y167600D01*
X30000Y132400D02*
Y167600D01*
X34000Y132400D02*
Y167600D01*
X16169Y192400D02*
X50000D01*
X28000Y182400D02*
Y187600D01*
X14825Y186000D02*
X50606D01*
X16169Y187600D02*
X49006D01*
X14825Y184000D02*
X52606D01*
X16169Y182400D02*
X50000D01*
X16169Y177600D02*
X49006D01*
X28000Y172400D02*
Y177600D01*
X16169Y172400D02*
X50000D01*
X16169Y167600D02*
X49006D01*
X14825Y174000D02*
X52606D01*
X14825Y176000D02*
X50606D01*
X14825Y164000D02*
X52606D01*
X14825Y166000D02*
X50606D01*
X28000Y192400D02*
Y193818D01*
X25477Y196129D02*
X27303Y194303D01*
X26000Y182400D02*
Y187600D01*
Y192400D02*
Y195606D01*
X14825Y194000D02*
X27673D01*
X14825Y196000D02*
X25606D01*
X24000Y192400D02*
Y196230D01*
X22000Y182400D02*
Y187600D01*
X26000Y172400D02*
Y177600D01*
X24000Y182400D02*
Y187600D01*
X28000Y162492D02*
Y167600D01*
X26000Y163770D02*
Y167600D01*
X24000Y172400D02*
Y177600D01*
X22000Y172400D02*
Y177600D01*
X24000Y163770D02*
Y167600D01*
X14825Y154000D02*
X62606D01*
X14825Y156000D02*
X60606D01*
X14825Y144000D02*
X72606D01*
X14825Y146000D02*
X70606D01*
X28348Y142000D02*
X74606D01*
X16169Y127600D02*
X76369D01*
X16169Y132400D02*
X76369D01*
X14825Y134000D02*
X78284D01*
X14825Y136000D02*
X78284D01*
X14825Y124000D02*
X78284D01*
X14825Y126000D02*
X78284D01*
X26000Y153770D02*
Y156230D01*
X24000Y153770D02*
Y156230D01*
X28000Y142492D02*
Y147508D01*
Y152492D02*
Y157508D01*
X22000Y162492D02*
Y167600D01*
Y142492D02*
Y147508D01*
Y152492D02*
Y157508D01*
X28000Y132400D02*
Y137508D01*
X26000Y143770D02*
Y146230D01*
Y132400D02*
Y136230D01*
X24000Y132400D02*
Y136230D01*
Y143770D02*
Y146230D01*
X16169Y137600D02*
X21926D01*
X22000Y132400D02*
Y137508D01*
X20000Y232400D02*
Y247500D01*
X18000Y232400D02*
Y247500D01*
X20000Y222400D02*
Y227600D01*
X18000Y222400D02*
Y227600D01*
X16000Y232797D02*
Y247500D01*
Y222797D02*
Y227203D01*
X16169Y217600D02*
X21926D01*
X16000Y212797D02*
Y217203D01*
X20000Y212400D02*
Y217600D01*
X18000Y212400D02*
Y217600D01*
X14000Y234299D02*
Y247500D01*
X12000Y234353D02*
Y247500D01*
X14000Y224299D02*
Y225701D01*
X12000Y224353D02*
Y225647D01*
X10000Y234353D02*
Y247500D01*
X8000Y234353D02*
Y247500D01*
X6555Y225647D02*
X13445D01*
X10000Y224353D02*
Y225647D01*
Y214353D02*
Y215647D01*
X8000Y224353D02*
Y225647D01*
X14000Y214299D02*
Y215701D01*
X12000Y214353D02*
Y215647D01*
X6555Y224353D02*
X13445D01*
X8000Y214353D02*
Y215647D01*
X6555Y214353D02*
X13445D01*
X20000Y202400D02*
Y207600D01*
X18000Y202400D02*
Y207600D01*
X20000Y192400D02*
Y197600D01*
X18000Y192400D02*
Y197600D01*
X16169Y202400D02*
X21926D01*
X16000Y202797D02*
Y207203D01*
X16169Y197600D02*
X21926D01*
X16000Y182797D02*
Y187203D01*
Y192797D02*
Y197203D01*
X20000Y182400D02*
Y187600D01*
X18000Y182400D02*
Y187600D01*
X14000Y204299D02*
Y205701D01*
X12000Y204353D02*
Y205647D01*
X14000Y194299D02*
Y195701D01*
X12000Y194353D02*
Y195647D01*
X10000Y204353D02*
Y205647D01*
X8000Y204353D02*
Y205647D01*
X6555Y195647D02*
X13445D01*
X6555Y204353D02*
X13445D01*
X12000Y184353D02*
Y185647D01*
X10000Y194353D02*
Y195647D01*
X14000Y184299D02*
Y185701D01*
X10000Y184353D02*
Y185647D01*
X6555D02*
X13445D01*
X8000Y194353D02*
Y195647D01*
Y184353D02*
Y185647D01*
X6555Y234353D02*
X13445D01*
X6000Y234299D02*
Y247500D01*
Y224299D02*
Y225701D01*
X2500Y226000D02*
X5175D01*
X2500Y234000D02*
X5175D01*
X6555Y215647D02*
X13445D01*
X6000Y214299D02*
Y215701D01*
X2500Y216000D02*
X5175D01*
X2500Y224000D02*
X5175D01*
X2500Y206000D02*
X5175D01*
X2500Y214000D02*
X5175D01*
X4000Y232797D02*
Y247500D01*
X3679Y228524D02*
Y231476D01*
X4000Y222797D02*
Y227203D01*
X3679Y218524D02*
Y221476D01*
X2500Y232000D02*
X3727D01*
X2500Y230000D02*
X3679D01*
X2500Y222000D02*
X3727D01*
X2500Y228000D02*
X3727D01*
X2500Y218000D02*
X3727D01*
X2500Y220000D02*
X3679D01*
X4000Y212797D02*
Y217203D01*
X3679Y208524D02*
Y211476D01*
X2500Y212000D02*
X3727D01*
X2500Y210000D02*
X3679D01*
X2500Y208000D02*
X3727D01*
X6555Y205647D02*
X13445D01*
X6000Y204299D02*
Y205701D01*
X6555Y194353D02*
X13445D01*
X6000Y194299D02*
Y195701D01*
X2500Y204000D02*
X5175D01*
X6555Y184353D02*
X13445D01*
X6000Y184299D02*
Y185701D01*
X2500Y186000D02*
X5175D01*
X2500Y194000D02*
X5175D01*
X2500Y184000D02*
X5175D01*
X4000Y202797D02*
Y207203D01*
X2500Y202000D02*
X3727D01*
X4000Y192797D02*
Y197203D01*
X3679Y198524D02*
Y201476D01*
X2500Y198000D02*
X3727D01*
X2500Y200000D02*
X3679D01*
X2500Y196000D02*
X5175D01*
X2500Y192000D02*
X3727D01*
X3679Y188524D02*
Y191476D01*
X2500Y190000D02*
X3679D01*
X4000Y182797D02*
Y187203D01*
X3679Y178524D02*
Y181476D01*
X2500Y182000D02*
X3727D01*
X2500Y188000D02*
X3727D01*
X2500Y180000D02*
X3679D01*
X20000Y172400D02*
Y177600D01*
X18000Y172400D02*
Y177600D01*
X20000Y162400D02*
Y167600D01*
X18000Y162400D02*
Y167600D01*
X16000Y172797D02*
Y177203D01*
X16169Y157600D02*
X21926D01*
X16169Y162400D02*
X21926D01*
X16169Y152400D02*
X21926D01*
X16000Y152797D02*
Y157203D01*
Y162797D02*
Y167203D01*
X12000Y174353D02*
Y175647D01*
X10000Y174353D02*
Y175647D01*
X14000Y164299D02*
Y165701D01*
Y174299D02*
Y175701D01*
X6555Y174353D02*
X13445D01*
X6555Y175647D02*
X13445D01*
X10000Y164353D02*
Y165647D01*
X8000Y174353D02*
Y175647D01*
X12000Y154353D02*
Y155647D01*
Y164353D02*
Y165647D01*
X14000Y154299D02*
Y155701D01*
X10000Y154353D02*
Y155647D01*
X8000Y154353D02*
Y155647D01*
Y164353D02*
Y165647D01*
X6555Y154353D02*
X13445D01*
X20000Y152400D02*
Y157600D01*
X18000Y152400D02*
Y157600D01*
X20000Y142400D02*
Y147600D01*
X18000Y142400D02*
Y147600D01*
X16169D02*
X21926D01*
X16000Y142797D02*
Y147203D01*
X16169Y142400D02*
X21926D01*
X16000Y132797D02*
Y137203D01*
X20000Y132400D02*
Y137600D01*
X18000Y132400D02*
Y137600D01*
X16000Y122797D02*
Y127203D01*
X14000Y144299D02*
Y145701D01*
X12000Y144353D02*
Y145647D01*
X14000Y134299D02*
Y135701D01*
X12000Y134353D02*
Y135647D01*
X6555Y145647D02*
X13445D01*
X10000Y144353D02*
Y145647D01*
Y134353D02*
Y135647D01*
X8000Y144353D02*
Y145647D01*
X10000Y124353D02*
Y125647D01*
X8000Y134353D02*
Y135647D01*
X14000Y124299D02*
Y125701D01*
X12000Y124353D02*
Y125647D01*
X6555D02*
X13445D01*
X8000Y124353D02*
Y125647D01*
X6555Y124353D02*
X13445D01*
X6000Y174299D02*
Y175701D01*
X6555Y165647D02*
X13445D01*
X6000Y164299D02*
Y165701D01*
X2500Y174000D02*
X5175D01*
X2500Y166000D02*
X5175D01*
X6555Y155647D02*
X13445D01*
X6555Y164353D02*
X13445D01*
X6000Y154299D02*
Y155701D01*
X2500Y156000D02*
X5175D01*
X2500Y154000D02*
X5175D01*
X2500Y176000D02*
X5175D01*
X4000Y172797D02*
Y177203D01*
Y162797D02*
Y167203D01*
X3679Y168524D02*
Y171476D01*
X2500Y172000D02*
X3727D01*
X2500Y178000D02*
X3727D01*
X2500Y168000D02*
X3727D01*
X2500Y170000D02*
X3679D01*
X2500Y164000D02*
X5175D01*
X2500Y162000D02*
X3727D01*
X4000Y152797D02*
Y157203D01*
X3679Y158524D02*
Y161476D01*
X2500Y158000D02*
X3727D01*
X2500Y160000D02*
X3679D01*
X2500Y152000D02*
X3727D01*
X6555Y144353D02*
X13445D01*
X6000Y134299D02*
Y135701D01*
Y144299D02*
Y145701D01*
X2500Y146000D02*
X5175D01*
X2500Y136000D02*
X5175D01*
X6555Y134353D02*
X13445D01*
X6555Y135647D02*
X13445D01*
X6000Y124299D02*
Y125701D01*
X2500Y134000D02*
X5175D01*
X2500Y124000D02*
X5175D01*
X2500Y126000D02*
X5175D01*
X2500Y148000D02*
X3727D01*
X3679Y148524D02*
Y151476D01*
X4000Y142797D02*
Y147203D01*
X3679Y138524D02*
Y141476D01*
X2500Y144000D02*
X5175D01*
X2500Y150000D02*
X3679D01*
X2500Y142000D02*
X3727D01*
X2500Y140000D02*
X3679D01*
X4000Y132797D02*
Y137203D01*
X3679Y128524D02*
Y131476D01*
X4000Y122797D02*
Y127203D01*
X2500Y128000D02*
X3727D01*
X2500Y132000D02*
X3727D01*
X2500Y138000D02*
X3727D01*
X2500Y130000D02*
X3679D01*
X46000Y122400D02*
Y127600D01*
X44000Y122400D02*
Y127600D01*
X48000Y109992D02*
Y117600D01*
X46000Y111270D02*
Y117600D01*
X40269D02*
X76369D01*
X39275Y122400D02*
X76369D01*
X38669Y116000D02*
X78284D01*
X44000Y111270D02*
Y117600D01*
X47993Y110000D02*
X49507D01*
X46394Y102000D02*
X47106D01*
X46000Y102394D02*
Y103106D01*
X34669Y112000D02*
X75647D01*
X36669Y114000D02*
X75647D01*
X38000Y111368D02*
Y115331D01*
Y122033D02*
Y127600D01*
X42000Y109992D02*
Y117600D01*
X40000Y110493D02*
Y117331D01*
X36000Y111100D02*
Y113331D01*
Y120119D02*
Y127600D01*
X40493Y110000D02*
X42007D01*
X38000Y102347D02*
Y103606D01*
X38827Y102000D02*
X39606D01*
X36000Y102400D02*
Y103900D01*
X34000Y109221D02*
Y111331D01*
Y102400D02*
Y105780D01*
X48394Y100000D02*
X49106D01*
X48000Y100394D02*
Y101106D01*
X45477Y103629D02*
X90803Y58303D01*
X44894Y96000D02*
X45606D01*
X44788Y103606D02*
X95994Y52400D01*
X36506Y97600D02*
X51706Y82400D01*
X39197Y101697D02*
X94494Y46400D01*
X37977Y103629D02*
X93303Y48303D01*
X48894Y92000D02*
X49606D01*
X48000Y92894D02*
Y93606D01*
X50000Y82400D02*
Y84106D01*
Y90894D02*
Y91606D01*
X46894Y94000D02*
X47606D01*
X46000Y94894D02*
Y95606D01*
X48000Y82400D02*
Y86106D01*
X46000Y82400D02*
Y88106D01*
X42000Y98894D02*
Y99606D01*
X40894Y100000D02*
X41606D01*
X44000Y96894D02*
Y97606D01*
X42894Y98000D02*
X43606D01*
X40000Y100894D02*
Y101606D01*
X36000Y82400D02*
Y97600D01*
X34000Y82400D02*
Y97600D01*
X42000Y82400D02*
Y92106D01*
X40000Y82400D02*
Y94106D01*
X44000Y62400D02*
Y77600D01*
Y82400D02*
Y90106D01*
X38000Y82400D02*
Y96106D01*
X36000Y62400D02*
Y77600D01*
X34000Y62400D02*
Y77600D01*
Y118119D02*
Y127600D01*
X32000Y116119D02*
Y127600D01*
X30972Y108303D02*
X40269Y117600D01*
X28281Y112400D02*
X37578Y121697D01*
X16273Y122000D02*
X37948D01*
X16321Y120000D02*
X35881D01*
X16273Y118000D02*
X33881D01*
X14825Y116000D02*
X31881D01*
X32669Y110000D02*
X34507D01*
X30602Y108000D02*
X33632D01*
X32000Y102400D02*
Y109331D01*
X14825Y106000D02*
X33900D01*
X16169Y102400D02*
X37500D01*
X14825Y104000D02*
X35780D01*
X30000Y114119D02*
Y127600D01*
X28000Y112400D02*
Y127600D01*
X26000Y112400D02*
Y127600D01*
X24000Y112400D02*
Y127600D01*
X14825Y114000D02*
X29881D01*
X18000Y112400D02*
Y127600D01*
X22000Y112400D02*
Y127600D01*
X20000Y112400D02*
Y127600D01*
X30000Y102400D02*
Y107712D01*
X28000Y102400D02*
Y107600D01*
X26000Y102400D02*
Y107600D01*
X16169D02*
X29275D01*
X16169Y112400D02*
X28281D01*
X24000Y102400D02*
Y107600D01*
X28348Y92000D02*
X42106D01*
X28000Y92492D02*
Y97600D01*
X32000Y82400D02*
Y97600D01*
X30000Y82400D02*
Y97600D01*
X14825Y96000D02*
X38106D01*
X16169Y97600D02*
X36506D01*
X14825Y94000D02*
X40106D01*
X28348Y88000D02*
X46106D01*
X28900Y90000D02*
X44106D01*
X32000Y62400D02*
Y77600D01*
X30000Y62400D02*
Y77600D01*
X14825Y86000D02*
X48106D01*
X16169Y82400D02*
X51706D01*
X14825Y84000D02*
X50106D01*
X26000Y93770D02*
Y97600D01*
X22000Y102400D02*
Y107600D01*
X24000Y93770D02*
Y97600D01*
X22000Y92492D02*
Y97600D01*
X20000Y92400D02*
Y97600D01*
Y102400D02*
Y107600D01*
X16169Y92400D02*
X21926D01*
X20000Y82400D02*
Y87600D01*
X28000Y82400D02*
Y87508D01*
X26000Y82400D02*
Y86230D01*
Y73770D02*
Y77600D01*
X24000Y82400D02*
Y86230D01*
X22000Y82400D02*
Y87508D01*
X16169Y87600D02*
X21926D01*
X22000Y72492D02*
Y77600D01*
X48000Y62400D02*
Y77600D01*
X46000Y62400D02*
Y77600D01*
X28900Y70000D02*
X59863D01*
X28348Y72000D02*
X57863D01*
X28348Y68000D02*
X61863D01*
X42000Y62400D02*
Y77600D01*
X49006Y57600D02*
X51129Y55477D01*
X48000Y52400D02*
Y57600D01*
Y33894D02*
Y47600D01*
X46000Y52400D02*
Y57600D01*
X28348Y42000D02*
X56173D01*
X44000Y52400D02*
Y57600D01*
X28900Y40000D02*
X54106D01*
X28348Y38000D02*
X52106D01*
X40000Y62400D02*
Y77600D01*
X38000Y62400D02*
Y77600D01*
X42000Y52400D02*
Y57600D01*
X40000Y52400D02*
Y57600D01*
X28000Y62400D02*
Y67508D01*
Y72492D02*
Y77600D01*
X38000Y52400D02*
Y57600D01*
X36000Y52400D02*
Y57600D01*
X30000Y52400D02*
Y57600D01*
X28000Y52400D02*
Y57600D01*
X34000Y52400D02*
Y57600D01*
X32000Y52400D02*
Y57600D01*
X26000Y43770D02*
Y47600D01*
Y52400D02*
Y57600D01*
X28000Y42492D02*
Y47600D01*
X49197Y28303D02*
X58494Y37600D01*
X46506Y32400D02*
X55803Y41697D01*
X42000Y32400D02*
Y47600D01*
X40000Y32400D02*
Y47600D01*
X46000Y32400D02*
Y47600D01*
X44000Y32400D02*
Y47600D01*
X48827Y28000D02*
X66314D01*
X48000Y2500D02*
Y27653D01*
X46000Y2500D02*
Y27600D01*
X44000Y2500D02*
Y27600D01*
X28900Y20000D02*
X65647D01*
X28348Y22000D02*
X65647D01*
X28348Y18000D02*
X65647D01*
X42000Y2500D02*
Y27600D01*
X38000Y32400D02*
Y47600D01*
X36000Y32400D02*
Y47600D01*
X40000Y2500D02*
Y27600D01*
X36000Y2500D02*
Y27600D01*
X30000Y32400D02*
Y47600D01*
X28000Y32400D02*
Y37508D01*
X34000Y32400D02*
Y47600D01*
X32000Y32400D02*
Y47600D01*
Y2500D02*
Y27600D01*
X30000Y2500D02*
Y27600D01*
X38000Y2500D02*
Y27600D01*
X34000Y2500D02*
Y27600D01*
X28000Y22492D02*
Y27600D01*
X26000Y23770D02*
Y27600D01*
X28000Y2500D02*
Y17508D01*
X16169Y77600D02*
X52263D01*
X16169Y62400D02*
X50000D01*
X14825Y74000D02*
X55863D01*
X14825Y76000D02*
X53863D01*
X14825Y64000D02*
X65863D01*
X14825Y66000D02*
X63863D01*
X16169Y52400D02*
X52093D01*
X16169Y57600D02*
X49006D01*
X16169Y47600D02*
X66369D01*
X14825Y54000D02*
X51230D01*
X14825Y56000D02*
X50606D01*
X14825Y46000D02*
X68283D01*
X14825Y44000D02*
X67955D01*
X26000Y62400D02*
Y66230D01*
X24000Y73770D02*
Y77600D01*
Y62400D02*
Y66230D01*
X22000Y62400D02*
Y67508D01*
X16169Y72400D02*
X21926D01*
X20000D02*
Y77600D01*
X16169Y67600D02*
X21926D01*
X20000Y62400D02*
Y67600D01*
X24000Y52400D02*
Y57600D01*
X22000Y52400D02*
Y57600D01*
X24000Y43770D02*
Y47600D01*
X22000Y42492D02*
Y47600D01*
X20000Y42400D02*
Y47600D01*
Y52400D02*
Y57600D01*
X16169Y42400D02*
X21926D01*
X16169Y27600D02*
X47500D01*
X16169Y32400D02*
X46506D01*
X14825Y36000D02*
X50106D01*
X14825Y34000D02*
X48106D01*
X14825Y26000D02*
X69428D01*
X14825Y24000D02*
X65647D01*
X16273Y12000D02*
X115000D01*
X14825Y16000D02*
X98283D01*
X16273Y8000D02*
X115000D01*
X16321Y10000D02*
X115000D01*
X14825Y6000D02*
X115000D01*
X14825Y14000D02*
X115000D01*
X2500Y2500D02*
X115000D01*
X2500Y4000D02*
X115000D01*
X26000Y32400D02*
Y36230D01*
X24000Y32400D02*
Y36230D01*
Y23770D02*
Y27600D01*
X22000Y32400D02*
Y37508D01*
X16169Y37600D02*
X21926D01*
X22000Y22492D02*
Y27600D01*
X20000Y32400D02*
Y37600D01*
X22000Y2500D02*
Y17508D01*
X20000Y2500D02*
Y17600D01*
X26000Y2500D02*
Y16230D01*
X24000Y2500D02*
Y16230D01*
X16169Y22400D02*
X21926D01*
X20000D02*
Y27600D01*
X16169Y17600D02*
X21926D01*
X16321Y118524D02*
Y121476D01*
X16000Y112797D02*
Y117203D01*
X14000Y114299D02*
Y115701D01*
X6555Y114353D02*
X13445D01*
X16000Y102797D02*
Y107203D01*
X14000Y104299D02*
Y105701D01*
X18000Y102400D02*
Y107600D01*
X14000Y94299D02*
Y95701D01*
X6555Y104353D02*
X13445D01*
X12000Y114353D02*
Y115647D01*
Y104353D02*
Y105647D01*
X10000Y114353D02*
Y115647D01*
X6555D02*
X13445D01*
X6555Y105647D02*
X13445D01*
X8000Y114353D02*
Y115647D01*
X10000Y104353D02*
Y105647D01*
X8000Y104353D02*
Y105647D01*
X12000Y94353D02*
Y95647D01*
X10000Y94353D02*
Y95647D01*
X6555Y94353D02*
X13445D01*
X6555Y95647D02*
X13445D01*
X8000Y94353D02*
Y95647D01*
X18000Y92400D02*
Y97600D01*
X16000Y92797D02*
Y97203D01*
X18000Y82400D02*
Y87600D01*
X16000Y82797D02*
Y87203D01*
X18000Y72400D02*
Y77600D01*
X16000Y72797D02*
Y77203D01*
X18000Y62400D02*
Y67600D01*
X16000Y62797D02*
Y67203D01*
X14000Y74299D02*
Y75701D01*
Y64299D02*
Y65701D01*
X12000Y84353D02*
Y85647D01*
X10000Y84353D02*
Y85647D01*
X14000Y84299D02*
Y85701D01*
X12000Y74353D02*
Y75647D01*
X6555Y84353D02*
X13445D01*
X8000D02*
Y85647D01*
X6555Y75647D02*
X13445D01*
X8000Y74353D02*
Y75647D01*
X12000Y64353D02*
Y65647D01*
X10000Y74353D02*
Y75647D01*
Y64353D02*
Y65647D01*
X8000Y64353D02*
Y65647D01*
X6555D02*
X13445D01*
X6555Y74353D02*
X13445D01*
X6555Y64353D02*
X13445D01*
X6000Y114299D02*
Y115701D01*
X2500Y116000D02*
X5175D01*
X2500Y114000D02*
X5175D01*
X6000Y104299D02*
Y105701D01*
Y94299D02*
Y95701D01*
X2500Y104000D02*
X5175D01*
X2500Y106000D02*
X5175D01*
X2500Y94000D02*
X5175D01*
X2500Y96000D02*
X5175D01*
X3679Y118524D02*
Y121476D01*
X2500Y120000D02*
X3679D01*
X4000Y112797D02*
Y117203D01*
X3679Y108524D02*
Y111476D01*
X2500Y118000D02*
X3727D01*
X2500Y122000D02*
X3727D01*
X2500Y112000D02*
X3727D01*
X2500Y110000D02*
X3679D01*
X4000Y102797D02*
Y107203D01*
X3679Y98524D02*
Y101476D01*
X4000Y92797D02*
Y97203D01*
X2500Y98000D02*
X3727D01*
X2500Y102000D02*
X3727D01*
X2500Y108000D02*
X3727D01*
X2500Y100000D02*
X3679D01*
X6555Y85647D02*
X13445D01*
X6000Y84299D02*
Y85701D01*
X4000Y82797D02*
Y87203D01*
X2500Y86000D02*
X5175D01*
X2500Y84000D02*
X5175D01*
X6000Y74299D02*
Y75701D01*
Y64299D02*
Y65701D01*
X2500Y74000D02*
X5175D01*
X2500Y76000D02*
X5175D01*
X2500Y66000D02*
X5175D01*
X2500Y92000D02*
X3727D01*
X3679Y88524D02*
Y91476D01*
Y78524D02*
Y81476D01*
X2500Y2500D02*
Y247500D01*
Y88000D02*
X3727D01*
X2500Y90000D02*
X3679D01*
X2500Y82000D02*
X3727D01*
X2500Y80000D02*
X3679D01*
X4000Y72797D02*
Y77203D01*
X3679Y68524D02*
Y71476D01*
X4000Y62797D02*
Y67203D01*
X2500Y68000D02*
X3727D01*
X2500Y72000D02*
X3727D01*
X2500Y78000D02*
X3727D01*
X2500Y70000D02*
X3679D01*
X16000Y52797D02*
Y57203D01*
X14000Y54299D02*
Y55701D01*
X18000Y42400D02*
Y47600D01*
Y52400D02*
Y57600D01*
X16000Y42797D02*
Y47203D01*
X14000Y44299D02*
Y45701D01*
X18000Y32400D02*
Y37600D01*
X16000Y32797D02*
Y37203D01*
X14000Y34299D02*
Y35701D01*
X12000Y54353D02*
Y55647D01*
X10000Y54353D02*
Y55647D01*
Y44353D02*
Y45647D01*
X8000Y54353D02*
Y55647D01*
X6555Y54353D02*
X13445D01*
X6555Y55647D02*
X13445D01*
X6555Y45647D02*
X13445D01*
X8000Y44353D02*
Y45647D01*
X12000Y34353D02*
Y35647D01*
Y44353D02*
Y45647D01*
X10000Y34353D02*
Y35647D01*
X8000Y34353D02*
Y35647D01*
X6555D02*
X13445D01*
X6555Y44353D02*
X13445D01*
X6555Y34353D02*
X13445D01*
X18000Y22400D02*
Y27600D01*
X16000Y22797D02*
Y27203D01*
X18000Y2500D02*
Y17600D01*
X16000Y12797D02*
Y17203D01*
X14000Y24299D02*
Y25701D01*
X16321Y8524D02*
Y11476D01*
X14000Y14299D02*
Y15701D01*
X16000Y2500D02*
Y7203D01*
X14000Y2500D02*
Y5701D01*
X6555Y15647D02*
X13445D01*
X12000Y24353D02*
Y25647D01*
X10000Y24353D02*
Y25647D01*
X12000Y14353D02*
Y15647D01*
X10000Y14353D02*
Y15647D01*
X6555Y25647D02*
X13445D01*
X8000Y24353D02*
Y25647D01*
X6555Y24353D02*
X13445D01*
X8000Y14353D02*
Y15647D01*
X12000Y2500D02*
Y5647D01*
X10000Y2500D02*
Y5647D01*
X6555D02*
X13445D01*
X6555Y14353D02*
X13445D01*
X8000Y2500D02*
Y5647D01*
X6000Y54299D02*
Y55701D01*
X2500Y56000D02*
X5175D01*
X2500Y64000D02*
X5175D01*
X2500Y54000D02*
X5175D01*
X6000Y44299D02*
Y45701D01*
Y34299D02*
Y35701D01*
X2500Y44000D02*
X5175D01*
X2500Y46000D02*
X5175D01*
X2500Y34000D02*
X5175D01*
X2500Y36000D02*
X5175D01*
X3679Y58524D02*
Y61476D01*
X2500Y60000D02*
X3679D01*
X4000Y52797D02*
Y57203D01*
X3679Y48524D02*
Y51476D01*
X2500Y58000D02*
X3727D01*
X2500Y62000D02*
X3727D01*
X2500Y52000D02*
X3727D01*
X2500Y50000D02*
X3679D01*
X4000Y42797D02*
Y47203D01*
X3679Y38524D02*
Y41476D01*
X4000Y32797D02*
Y37203D01*
X2500Y38000D02*
X3727D01*
X2500Y42000D02*
X3727D01*
X2500Y48000D02*
X3727D01*
X2500Y40000D02*
X3679D01*
X6000Y24299D02*
Y25701D01*
X2500Y26000D02*
X5175D01*
X2500Y16000D02*
X5175D01*
X2500Y24000D02*
X5175D01*
X6000Y14299D02*
Y15701D01*
Y2500D02*
Y5701D01*
X2500Y6000D02*
X5175D01*
X2500Y14000D02*
X5175D01*
X3679Y28524D02*
Y31476D01*
X2500Y30000D02*
X3679D01*
X4000Y22797D02*
Y27203D01*
X3679Y18524D02*
Y21476D01*
X2500Y28000D02*
X3727D01*
X2500Y32000D02*
X3727D01*
X2500Y22000D02*
X3727D01*
X2500Y20000D02*
X3679D01*
X4000Y12797D02*
Y17203D01*
X3679Y8524D02*
Y11476D01*
X4000Y2500D02*
Y7203D01*
X2500Y8000D02*
X3727D01*
X2500Y12000D02*
X3727D01*
X2500Y18000D02*
X3727D01*
X2500Y10000D02*
X3679D01*
D11*
X40488Y205000D02*
D03*
X51512D02*
D03*
D12*
X10000Y140000D02*
D03*
Y150000D02*
D03*
Y160000D02*
D03*
Y60000D02*
D03*
Y170000D02*
D03*
Y70000D02*
D03*
Y180000D02*
D03*
Y80000D02*
D03*
Y190000D02*
D03*
Y90000D02*
D03*
Y100000D02*
D03*
Y210000D02*
D03*
Y110000D02*
D03*
Y120000D02*
D03*
Y130000D02*
D03*
Y50000D02*
D03*
Y40000D02*
D03*
Y30000D02*
D03*
Y20000D02*
D03*
Y10000D02*
D03*
Y230000D02*
D03*
Y220000D02*
D03*
Y200000D02*
D03*
D13*
X110000Y220000D02*
Y223953D01*
X106047Y220000D02*
X110000D01*
X113953D01*
X110000Y216047D02*
Y220000D01*
Y90000D02*
Y93953D01*
Y90000D02*
X113953D01*
X106047D02*
X110000D01*
X80000Y110000D02*
X83953D01*
X80000Y106047D02*
Y110000D01*
Y113953D01*
X76047Y110000D02*
X80000D01*
X110000Y80000D02*
X113953D01*
X110000Y70000D02*
X113953D01*
X110000Y86047D02*
Y90000D01*
Y80000D02*
Y83953D01*
X106047Y80000D02*
X110000D01*
Y76047D02*
Y80000D01*
X106047Y70000D02*
X110000D01*
Y60000D02*
X113953D01*
X110000Y66047D02*
Y70000D01*
Y73953D01*
X106047Y60000D02*
X110000D01*
Y63953D01*
Y56047D02*
Y60000D01*
Y50000D02*
Y53953D01*
Y50000D02*
X113953D01*
X110000Y40000D02*
X113953D01*
X110000Y46047D02*
Y50000D01*
Y40000D02*
Y43953D01*
X106047Y50000D02*
X110000D01*
Y36047D02*
Y40000D01*
X106047D02*
X110000D01*
Y30000D02*
X113953D01*
X110000Y20000D02*
X113953D01*
X110000Y26047D02*
Y30000D01*
Y33953D01*
Y20000D02*
Y23953D01*
X106047Y30000D02*
X110000D01*
Y16047D02*
Y20000D01*
X106047D02*
X110000D01*
X70000Y20472D02*
X73953D01*
X70000D02*
Y24425D01*
Y16520D02*
Y20472D01*
X66047D02*
X70000D01*
X10000Y120000D02*
X15921D01*
X10000D02*
Y123953D01*
Y116047D02*
Y120000D01*
X4079D02*
X10000D01*
Y10000D02*
X15921D01*
X10000Y6047D02*
Y10000D01*
Y13953D01*
X4079Y10000D02*
X10000D01*
D14*
X57500Y40000D02*
X69842D01*
X10000Y50000D02*
X70000D01*
X60000Y190000D02*
X80000Y170000D01*
X60000Y190000D02*
Y209000D01*
X39000Y230000D02*
X60000Y209000D01*
X10000Y230000D02*
X39000D01*
X29000Y196000D02*
X51000D01*
X25000Y200000D02*
X29000Y196000D01*
X30000Y205000D02*
X40488D01*
X25000Y210000D02*
X30000Y205000D01*
X51512Y196512D02*
Y205000D01*
X51000Y196000D02*
X51512Y196512D01*
X140000Y150000D02*
X150000Y140000D01*
Y90000D02*
Y140000D01*
X140000Y220000D02*
X157500Y202500D01*
Y52500D02*
Y202500D01*
X155000Y50000D02*
X157500Y52500D01*
X150000Y50000D02*
X155000D01*
X150000Y80000D02*
Y90000D01*
Y70000D02*
Y80000D01*
Y60000D02*
Y70000D01*
Y40000D02*
Y50000D01*
Y30000D02*
Y40000D01*
Y20000D02*
Y30000D01*
X10000D02*
X47500D01*
X57500Y40000D01*
X10000Y210000D02*
X25000D01*
X10000Y190000D02*
X50000D01*
X80000Y160000D01*
X10000Y180000D02*
X50000D01*
X80000Y150000D01*
X10000Y170000D02*
X50000D01*
X80000Y140000D01*
X10000Y130000D02*
X80000D01*
X39275Y120000D02*
X80000D01*
X29275Y110000D02*
X39275Y120000D01*
X10000Y110000D02*
X29275D01*
X10000Y220000D02*
X25000D01*
X10000Y200000D02*
X25000D01*
X10000Y160000D02*
X25000D01*
X10000Y150000D02*
X25000D01*
X10000Y140000D02*
X25000D01*
X10000Y90000D02*
X25000D01*
X10000Y70000D02*
X25000D01*
X10000Y40000D02*
X25000D01*
X10000Y20000D02*
X25000D01*
X90000Y187500D02*
Y202500D01*
X100000Y212500D01*
Y220000D01*
X67500Y107500D02*
X85000Y90000D01*
X100000D01*
X60000Y107500D02*
X87500Y80000D01*
X100000D01*
X52500Y107500D02*
X90000Y70000D01*
X100000D01*
X45000Y107500D02*
X92500Y60000D01*
X100000D01*
X10000Y80000D02*
X53257D01*
X10000Y100000D02*
X37500D01*
X10000Y60000D02*
X50000D01*
X55000Y55000D01*
X140000Y90000D02*
Y120000D01*
X132500Y122500D02*
X140000Y130000D01*
X132500Y87500D02*
Y122500D01*
Y87500D02*
X140000Y80000D01*
X127500Y127500D02*
X140000Y140000D01*
X127500Y82500D02*
Y127500D01*
Y82500D02*
X140000Y70000D01*
X122500Y162500D02*
X140000Y180000D01*
X117500Y167500D02*
X140000Y190000D01*
X40488Y205000D02*
Y214512D01*
X37500Y100000D02*
X93500Y44000D01*
X96000D01*
X100000Y40000D01*
X37500Y107500D02*
X95000Y50000D01*
X100000D01*
X91000Y39000D02*
X100000Y30000D01*
X91000Y39000D02*
Y42257D01*
X53257Y80000D02*
X91000Y42257D01*
X117500Y44500D02*
Y167500D01*
X122500Y55500D02*
Y162500D01*
Y55500D02*
X128000Y50000D01*
X140000D01*
X117500Y44500D02*
X122000Y40000D01*
X140000D01*
D15*
X70000Y50000D02*
D03*
Y40157D02*
D03*
Y30315D02*
D03*
X80000Y180000D02*
D03*
Y170000D02*
D03*
Y160000D02*
D03*
Y150000D02*
D03*
Y140000D02*
D03*
Y130000D02*
D03*
Y120000D02*
D03*
X140000Y220000D02*
D03*
Y210000D02*
D03*
Y200000D02*
D03*
Y190000D02*
D03*
Y150000D02*
D03*
Y140000D02*
D03*
Y130000D02*
D03*
X110000Y20000D02*
D03*
X100000D02*
D03*
X110000Y30000D02*
D03*
X100000D02*
D03*
X110000Y40000D02*
D03*
X100000D02*
D03*
X110000Y50000D02*
D03*
X100000D02*
D03*
X110000Y60000D02*
D03*
X100000D02*
D03*
X110000Y70000D02*
D03*
X100000D02*
D03*
X110000Y80000D02*
D03*
X100000D02*
D03*
X110000Y90000D02*
D03*
X150000Y20000D02*
D03*
X140000D02*
D03*
X150000Y30000D02*
D03*
X140000D02*
D03*
X150000Y40000D02*
D03*
X140000D02*
D03*
X150000Y50000D02*
D03*
X140000D02*
D03*
X150000Y60000D02*
D03*
X140000D02*
D03*
X150000Y70000D02*
D03*
X140000D02*
D03*
X150000Y80000D02*
D03*
X140000D02*
D03*
X150000Y90000D02*
D03*
X100000Y220000D02*
D03*
X90000D02*
D03*
X80000D02*
D03*
X70000D02*
D03*
X60000D02*
D03*
D16*
X70000Y20472D02*
D03*
X80000Y110000D02*
D03*
X140000Y180000D02*
D03*
Y120000D02*
D03*
X100000Y90000D02*
D03*
X140000D02*
D03*
D17*
X20000Y260000D02*
D03*
X150000D02*
D03*
Y-20000D02*
D03*
X20000D02*
D03*
D18*
X110000Y220000D02*
D03*
D19*
X25000D02*
D03*
Y200000D02*
D03*
Y160000D02*
D03*
Y150000D02*
D03*
Y140000D02*
D03*
Y90000D02*
D03*
Y70000D02*
D03*
Y40000D02*
D03*
Y20000D02*
D03*
X90000Y187500D02*
D03*
X67500Y107500D02*
D03*
X60000D02*
D03*
X52500D02*
D03*
X45000D02*
D03*
X37500D02*
D03*
X55000Y55000D02*
D03*
X40488Y214512D02*
D03*
M02*
