Time,MAC,3v3 Rail (V),nRF VDD (V),Batt Analog (V),Idle Button (V),Motor Test,Batt Digital,IMU Test,RTC Test,Pass/Fail,Notes
1481694482.547,"Error, could not communicate with nRF52.",3.295901960784313,3.3017254901960764,2.916960784313727,0.001568627450980392,"[0, 0, 0, 0]",0,0,0,Fail,"03 Motor test failure. 04 IMU self-test failure. 05 RTC time-test failure. 06 Battery measurement failure. 07 Button did not register, please rework button. "
1481695238.425,"Error, could not communicate with nRF52.",3.2830000000000026,3.2969999999999997,2.920200000000002,0.0048,"[0, 0, 0, 0]",0,0,0,Fail,"03 Motor test failure. 04 IMU self-test failure. 05 RTC time-test failure. 06 Battery measurement failure. 07 Button did not register, please rework button. "
1481695904.682,"Error, could not communicate with nRF52.",3.2981599999999984,3.3028999999999984,2.9258000000000015,0.0032,"[0, 0, 0, 0]",0,0,0,Fail,"03 Motor test failure. 04 IMU self-test failure. 05 RTC time-test failure. 06 Battery measurement failure. 07 Button did not register, please rework button. "
1481695979.887,"Error, could not communicate with nRF52.",3.287800000000002,3.298999999999999,2.9154000000000013,0.0028000000000000004,"[0, 0, 0, 0]",0,0,0,Fail,"03 Motor test failure. 04 IMU self-test failure. 05 RTC time-test failure. 06 Battery measurement failure. 07 Button did not register, please rework button. "
1481696050.669,"Error, could not communicate with nRF52.",3.298254901960783,3.304352941176469,2.919313725490197,0.0027450980392156863,"[0, 0, 0, 0]",0,0,0,Fail,"03 Motor test failure. 04 IMU self-test failure. 05 RTC time-test failure. 06 Battery measurement failure. 07 Button did not register, please rework button. "
1481696114.992,"Error, could not communicate with nRF52.",3.2942,3.302079999999998,2.9202000000000017,0.004399999999999999,"[0, 0, 0, 0]",0,0,0,Fail,"03 Motor test failure. 04 IMU self-test failure. 05 RTC time-test failure. 06 Battery measurement failure. 07 Button did not register, please rework button. "
1481696532.664,CE:03:9C:E4:4B:63,3.280640000000003,3.284120000000003,2.921400000000001,0.002,"[3.222581331503095, -4.179112331274307, -3.2230000000000065, 4.178723404255321]",100,7,1,Pass,ALL PASS
1481696612.642,"Error, could not communicate with nRF52.",3.2919803921568627,3.3024509803921553,2.9181372549019624,0.004705882352941176,"[0, 0, 0, 0]",0,0,0,Fail,"03 Motor test failure. 04 IMU self-test failure. 05 RTC time-test failure. 06 Battery measurement failure. 07 Button did not register, please rework button. "
1481696702.026,"Error, could not communicate with nRF52.",3.2814313725490227,3.292372549019609,2.9161764705882365,0.0027450980392156863,"[0, 0, 0, 0]",0,0,0,Fail,"03 Motor test failure. 04 IMU self-test failure. 05 RTC time-test failure. 06 Battery measurement failure. 07 Button did not register, please rework button. "
1481696990.833,FF:48:08:5E:9A:43,3.3181372549019574,3.3227450980392126,2.9193137254901975,0.006274509803921568,"[3.2626702127659577, -4.1759680851063825, -3.2613936170212767, 4.177244680851064]",95,7,1,Fail,"07 Button did not register, please rework button. "
1481697062.659,"Error, could not communicate with nRF52.",3.2969999999999993,3.3021399999999983,2.9190000000000014,0.0036,"[0, 0, 0, 0]",0,0,0,Fail,"03 Motor test failure. 04 IMU self-test failure. 05 RTC time-test failure. 06 Battery measurement failure. 07 Button did not register, please rework button. "
1481697158.149,FF:48:08:5E:9A:43,3.3181399999999974,3.3252399999999978,2.9198000000000017,0.002,"[3.2628723404255324, -4.175531914893618, -3.2620212765957453, 4.177872340425533]",95,7,1,Fail,"07 Button did not register, please rework button. "
1481697197.106,FF:48:08:5E:9A:43,3.316619999999997,3.325599999999998,2.9190000000000023,0.0036,"[3.2622211164493256, -4.178702814001374, -3.263712765957447, 4.177659574468086]",95,7,1,Pass,ALL PASS
1481697264.597,E5:65:B3:05:CA:42,3.2853333333333348,3.2970784313725483,2.9177450980392168,0.004313725490196078,"[3.2336914893617053, -4.175319148936169, -3.2334787234042586, 4.176595744680852]",95,7,1,Fail,"07 Button did not register, please rework button. "
1481697310.463,E5:65:B3:05:CA:42,3.2849215686274533,3.2978431372549006,2.915392156862747,0.00392156862745098,"[3.2315152139098653, -4.176328071379549, -3.2310851063829835, 4.17808510638298]",95,7,1,Pass,ALL PASS
1481697385.157,"Error, could not communicate with nRF52.",3.2985999999999986,3.300959999999999,2.9190000000000023,0.0028000000000000004,"[0, 0, 0, 0]",0,0,0,Fail,03 Motor test failure. 04 IMU self-test failure. 05 RTC time-test failure. 06 Battery measurement failure. 
1481697476.619,C7:40:72:B5:4E:CF,3.2884509803921596,3.2959019607843145,2.920882352941178,0.004705882352941176,"[3.2304361702127684, -4.176606382978726, -3.2319346831388724, 4.174400938000457]",0,0,949363296,Fail,04 IMU self-test failure. 05 RTC time-test failure. 06 Battery measurement failure. 
1481697534.039,"Error, could not communicate with nRF52.",3.2911960784313727,3.298254901960783,2.9181372549019624,0.0023529411764705885,"[0, 0, 0, 0]",0,0,0,Fail,"03 Motor test failure. 04 IMU self-test failure. 05 RTC time-test failure. 06 Battery measurement failure. 07 Button did not register, please rework button. "
1481697617.253,C7:40:72:B5:4E:CF,3.2894000000000005,3.2985799999999994,2.918200000000001,0.0028000000000000004,"[3.233666666666669, -4.175161290322581, -3.233236559139787, 4.175161290322581]",95,7,1,Fail,"07 Button did not register, please rework button. "
1481697676.969,"Error, could not communicate with nRF52.",3.2919803921568636,3.298254901960783,2.9181372549019615,0.0027450980392156863,"[0, 0, 0, 0]",0,0,0,Fail,"03 Motor test failure. 04 IMU self-test failure. 05 RTC time-test failure. 06 Battery measurement failure. 07 Button did not register, please rework button. "
1481698372.373,"Error, could not communicate with nRF52.",3.2866000000000026,3.298999999999999,2.920200000000001,0.005599999999999999,"[0, 0, 0, 0]",0,0,0,Fail,"02 Did not program, check USB connection. 03 Motor test failure. 04 IMU self-test failure. 05 RTC time-test failure. 06 Battery measurement failure. 07 Button did not register, please rework button. "
1481698424.631,"Error, could not communicate with nRF52.",3.2906,3.296999999999999,2.9202000000000017,0.0048,"[0, 0, 0, 0]",0,0,0,Fail,"03 Motor test failure. 04 IMU self-test failure. 05 RTC time-test failure. 06 Battery measurement failure. 07 Button did not register, please rework button. "
1481698605.742,"Error, could not communicate with nRF52.",3.287666666666668,3.298647058823528,2.9189215686274523,0.00392156862745098,"[0, 0, 0, 0]",0,0,0,Fail,"03 Motor test failure. 04 IMU self-test failure. 05 RTC time-test failure. 06 Battery measurement failure. 07 Button did not register, please rework button. "
1481698648.77,CC:EE:F5:45:DB:14,3.298254901960783,3.3035882352941157,2.9177450980392168,0.0027450980392156863,"[3.2388389384580205, -4.1765560512468545, -3.237978723404257, 4.176393617021277]",95,7,1,Pass,ALL PASS
1481698707.566,EB:F3:B9:42:1B:99,3.295,3.3024799999999974,2.9186000000000014,0.004399999999999999,"[3.239031914893618, -4.177021276595745, -3.240095744680852, 4.175744680851065]",100,7,1,Pass,ALL PASS
1481698751.101,C6:F1:89:6C:58:4A,3.2957999999999994,3.3016999999999985,2.9194000000000018,0.005199999999999999,"[3.242446808510639, -4.172553191489362, -3.2418085106382986, 4.173829787234043]",100,7,1,Pass,ALL PASS
1481698867.152,FD:1A:06:62:F6:10,3.2969999999999997,3.3009199999999987,2.9194000000000018,0.0024000000000000002,"[3.238621596888583, -4.181043239533288, -3.2392553191489353, 4.180425531914895]",100,7,1,Pass,ALL PASS
1481698915.444,CD:6B:69:C5:32:50,3.2854000000000014,3.29498,2.9198000000000013,0.005599999999999999,"[3.2332446808510675, -4.175968085106384, -3.233457446808514, 4.172776595744681]",95,7,1,Pass,ALL PASS
1481698965.754,EA:51:F0:F6:7D:FE,3.299799999999999,3.3070799999999974,2.915000000000002,0.0012,"[3.240159574468086, -4.1772446808510635, -3.2416489361702134, 4.179361702127659]",95,7,1,Pass,ALL PASS
1481699110.408,E2:0F:19:4F:09:C5,3.2692200000000016,3.2780400000000025,2.9178000000000015,0.0032,"[3.220559139784953, -4.179462365591399, -3.221204301075276, 4.179473118279571]",95,7,2,Pass,ALL PASS
1481699181.685,"Error, could not communicate with nRF52.",3.2862000000000022,3.298979999999999,2.9158000000000017,0.002,"[0, 0, 0, 0]",0,0,0,Fail,"03 Motor test failure. 04 IMU self-test failure. 05 RTC time-test failure. 06 Battery measurement failure. 07 Button did not register, please rework button. "
1481699252.133,"Error, could not communicate with nRF52.",3.287000000000002,3.2982,2.915000000000002,0.004399999999999999,"[0, 0, 0, 0]",0,0,0,Fail,"03 Motor test failure. 04 IMU self-test failure. 05 RTC time-test failure. 06 Battery measurement failure. 07 Button did not register, please rework button. "
1481699359.997,"Error, could not communicate with nRF52.",3.2884705882352954,3.299803921568626,2.915392156862746,0.003137254901960784,"[0, 0, 0, 0]",0,0,0,Fail,"03 Motor test failure. 04 IMU self-test failure. 05 RTC time-test failure. 06 Battery measurement failure. 07 Button did not register, please rework button. "
1481699427.731,"Error, could not communicate with nRF52.",3.281400000000003,3.2925999999999997,2.916600000000001,0.0024000000000000002,"[0, 0, 0, 0]",0,0,0,Fail,"03 Motor test failure. 04 IMU self-test failure. 05 RTC time-test failure. 06 Battery measurement failure. 07 Button did not register, please rework button. "
1481702375.475,C4:E4:2D:08:7B:10,3.2977999999999987,3.303619999999998,2.9146200000000015,0.0016,"[3.239732784259895, -4.165449553877828, -3.240172043010753, 4.164623655913974]",95,7,1,Pass,ALL PASS
1481702519.729,"Error, could not communicate with nRF52.",3.299399999999999,3.3044199999999977,2.9162000000000017,0.0036,"[0, 0, 0, 0]",0,0,0,Fail,"03 Motor test failure. 04 IMU self-test failure. 05 RTC time-test failure. 06 Battery measurement failure. 07 Button did not register, please rework button. "
1481702630.791,"Error, could not communicate with nRF52.",3.2990392156862742,3.302450980392155,2.9165686274509817,0.00392156862745098,"[0, 0, 0, 0]",0,0,0,Fail,"03 Motor test failure. 04 IMU self-test failure. 05 RTC time-test failure. 06 Battery measurement failure. 07 Button did not register, please rework button. "
1481702769.014,D8:6A:E2:71:1D:0C,3.2885999999999997,3.2981599999999993,2.9162000000000017,0.0016,"[3.2337234042553207, -4.175957446808514, -3.2332978723404273, 4.177234042553194]",100,7,1,Pass,ALL PASS
1481703251.718,"Error, could not communicate with nRF52.",3.291196078431373,3.299803921568626,2.920098039215687,0.004313725490196078,"[0, 0, 0, 0]",0,0,0,Fail,"03 Motor test failure. 04 IMU self-test failure. 05 RTC time-test failure. 06 Battery measurement failure. 07 Button did not register, please rework button. "
1481703420.652,"Error, could not communicate with nRF52.",3.284600000000002,3.2961999999999994,2.915000000000002,0.004,"[0, 0, 0, 0]",0,0,0,Fail,"03 Motor test failure. 04 IMU self-test failure. 05 RTC time-test failure. 06 Battery measurement failure. 07 Button did not register, please rework button. "
1481704689.782,CD:DE:FE:FB:13:6C,3.2862000000000022,3.293799999999999,2.9162000000000012,0.0032,"[3.230025852207736, -4.178498398535806, -3.2304468085106413, 4.179787234042555]",0,0,949363312,Fail,04 IMU self-test failure. 05 RTC time-test failure. 06 Battery measurement failure. 
1481704724.909,CD:DE:FE:FB:13:6C,3.284200000000003,3.2969999999999997,2.917400000000001,0.0032,"[3.2291595744680888, -4.176617021276598, -3.2291595744680888, 4.176191489361702]",95,7,1,Pass,ALL PASS
1481704755.85,CD:DE:FE:FB:13:6C,3.2845490196078457,3.294333333333333,2.918529411764707,0.006274509803921568,"[3.2271055822466295, -4.177224090597117, -3.2286063829787275, 4.175968085106385]",95,7,1,Pass,ALL PASS
1481704880.064,CD:DE:FE:FB:13:6C,3.2834000000000025,3.2946,2.917800000000001,0.004,"[3.227178220086942, -4.1799314802104774, -3.2282420498741757, 4.179516586593456]",95,7,1,Pass,ALL PASS
