Time,MAC,3v3 Rail (V),nRF VDD (V),Batt Analog (V),Idle Button (V),Motor Test,Batt Digital,IMU Test,RTC Test,Pass/Fail,Notes
1481681982.83,EC:95:71:D3:2C:E3,3.283440000000003,3.2925000000000004,2.9154000000000013,0.0012,"[3.229010638297876, -4.175957446808511, -3.229861702127663, 4.173617021276595]",95,7,1,Pass,ALL PASS
1481683962.215,D9:65:61:D9:FC:5D,3.289000000000001,3.2989999999999986,2.916600000000001,0.006,"[3.2357021276595757, -4.177234042553192, -3.2352765957446823, 4.177021276595745]",95,7,1,Pass,ALL PASS
1481684076.783,C0:03:10:50:89:FE,3.2845294117647086,3.2955098039215693,2.915392156862746,0.0027450980392156863,"[3.2256808510638346, -4.167021276595743, -3.225042553191494, 4.165106382978719]",95,7,1,Pass,ALL PASS
1481684117.452,E5:EF:CF:E7:0E:D5,3.2880588235294135,3.300980392156861,2.915392156862747,0.003529411764705882,"[3.2332978723404273, -4.177648936170215, -3.2337234042553207, 4.176808510638299]",95,7,1,Pass,ALL PASS
1481685297.983,C1:3A:FC:58:5D:22,3.2813921568627484,3.2931568627450973,2.9150000000000014,0.0023529411764705885,"[3.233063829787238, -4.165117021276594, -3.2315744680851104, 4.170436170212766]",100,7,1,Pass,ALL PASS
1481685417.777,FD:E4:C6:6E:24:BF,3.2939411764705886,3.299431372549018,2.9157843137254917,0.0023529411764705885,"[3.2350957446808533, -4.173191489361702, -3.235521276595747, 4.176170212765956]",95,7,1,Pass,ALL PASS
1481685456.111,E5:6B:BA:C4:C4:D5,3.2857254901960795,3.296294117647058,2.9157843137254917,0.0023529411764705885,"[3.2298191489361745, -4.178095744680853, -3.2300319148936216, 4.1776702127659595]",85,7,1,Fail,06 Battery measurement failure. 
1481685490.121,E5:6B:BA:C4:C4:D5,3.2860980392156875,3.2947254901960785,2.9165686274509817,0.00196078431372549,"[3.2306595744680884, -4.176170212765958, -3.2304468085106417, 4.176382978723406]",85,7,1,Fail,06 Battery measurement failure. 
1481685566.669,DD:2A:30:2B:71:BD,3.299823529411763,3.305470588235292,2.917352941176472,0.005098039215686274,"[3.2420212765957452, -4.171702127659573, -3.2426595744680853, 4.169574468085101]",95,7,1,Pass,ALL PASS
1481685610.22,C0:69:BC:3F:A1:D9,3.2826000000000026,3.295399999999999,2.9170000000000016,0.0032,"[3.229313886982388, -4.165619537863187, -3.2271702127659614, 4.168744680851063]",95,7,1,Pass,ALL PASS
1481685645.668,E6:16:C1:48:6F:AA,3.286200000000002,3.298999999999999,2.9154000000000013,0.0032,"[3.2314086021505406, -4.1745268817204275, -3.231188972775112, 4.174147105925419]",90,7,1,Pass,ALL PASS
1481685990.654,FE:D8:F3:EE:EB:1B,3.2914000000000003,3.3001999999999985,2.916600000000001,0.006,"[3.2331170212765983, -4.178723404255321, -3.2339680851063854, 4.1761808510638305]",100,7,1,Fail,"07 Button did not register, please rework button. "
1481686174.975,FE:D8:F3:EE:EB:1B,3.2935490196078434,3.30241176470588,2.9181372549019624,0.0058823529411764705,"[3.234425531914897, -4.176808510638298, -3.235276595744684, 4.176808510638298]",100,7,1,Pass,ALL PASS
