Added Component: Designator=P1(HDR1X4-25MM)
Added Pin To Net: NetName=TP2,TP15-GND Pin=P1-1
Added Pin To Net: NetName=TP11-VDD_NRF Pin=P1-2
Added Pin To Net: NetName=TP3-SWDCLK Pin=P1-3
Added Pin To Net: NetName=TP9-SWDIO Pin=P1-4
Added Member To Class: ClassName=ha_tfpcb2_v1r0 Member=Component P1 Header 4
