Added Pin To Net: NetName=GND1 Pin=P1-3
Added Pin To Net: NetName=GND1 Pin=P3-1
Added Net: Name=GND1
Added Pin To Net: NetName=GND2 Pin=P1-7
Added Pin To Net: NetName=GND2 Pin=P3-3
Added Net: Name=GND2
Added Pin To Net: NetName=GND3 Pin=P1-11
Added Pin To Net: NetName=GND3 Pin=P3-5
Added Net: Name=GND3
Added Pin To Net: NetName=GND4 Pin=P1-15
Added Pin To Net: NetName=GND4 Pin=P3-7
Added Net: Name=GND4
Added Pin To Net: NetName=GNDA Pin=P2-3
Added Pin To Net: NetName=GNDA Pin=P3-9
Added Net: Name=GNDA
Added Pin To Net: NetName=GNDB Pin=P2-7
Added Pin To Net: NetName=GNDB Pin=P3-11
Added Net: Name=GNDB
Added Pin To Net: NetName=GNDC Pin=P2-11
Added Pin To Net: NetName=GNDC Pin=P3-13
Added Net: Name=GNDC
Added Pin To Net: NetName=GNDD Pin=P2-15
Added Pin To Net: NetName=GNDD Pin=P3-15
Added Net: Name=GNDD
Added Pin To Net: NetName=SIG1 Pin=P1-1
Added Pin To Net: NetName=SIG1 Pin=P3-2
Added Net: Name=SIG1
Added Pin To Net: NetName=SIG2 Pin=P1-5
Added Pin To Net: NetName=SIG2 Pin=P3-4
Added Net: Name=SIG2
Added Pin To Net: NetName=SIG3 Pin=P1-9
Added Pin To Net: NetName=SIG3 Pin=P3-6
Added Net: Name=SIG3
Added Pin To Net: NetName=SIG4 Pin=P1-13
Added Pin To Net: NetName=SIG4 Pin=P3-8
Added Net: Name=SIG4
Added Pin To Net: NetName=SIGA Pin=P2-1
Added Pin To Net: NetName=SIGA Pin=P3-10
Added Net: Name=SIGA
Added Pin To Net: NetName=SIGB Pin=P2-5
Added Pin To Net: NetName=SIGB Pin=P3-12
Added Net: Name=SIGB
Added Pin To Net: NetName=SIGC Pin=P2-9
Added Pin To Net: NetName=SIGC Pin=P3-14
Added Net: Name=SIGC
Added Pin To Net: NetName=SIGD Pin=P2-13
Added Pin To Net: NetName=SIGD Pin=P3-16
Added Net: Name=SIGD
